cpu_test.vcd
$date
	Mon Mar 16 00:40:53 2026
$end
$version
	Icarus Verilog
$end
$timescale
	1s
$end
$scope module top_tb $end
$var reg 1 ! clk $end
$var reg 1 " reset $end
$scope module uut $end
$var wire 1 ! clk $end
$var wire 32 # ex_jalr_target [31:0] $end
$var wire 1 $ flush $end
$var wire 1 " reset $end
$var wire 32 % pc_plus4 [31:0] $end
$var wire 32 & pc_out [31:0] $end
$var wire 32 ' pc_next [31:0] $end
$var wire 32 ( mem_read_data [31:0] $end
$var wire 32 ) if_instr [31:0] $end
$var wire 2 * id_result_src [1:0] $end
$var wire 1 + id_reg_write $end
$var wire 32 , id_rd2 [31:0] $end
$var wire 32 - id_rd1 [31:0] $end
$var wire 1 . id_mem_write $end
$var wire 1 / id_jump $end
$var wire 1 0 id_jalr $end
$var wire 32 1 id_imm_ext [31:0] $end
$var wire 1 2 id_branch $end
$var wire 2 3 id_alu_src1 [1:0] $end
$var wire 1 4 id_alu_src $end
$var wire 4 5 id_alu_control [3:0] $end
$var wire 1 6 ex_zero $end
$var wire 32 7 ex_srcB_mux [31:0] $end
$var wire 32 8 ex_branch_target [31:0] $end
$var wire 32 9 ex_alu_result [31:0] $end
$var reg 1 : ex_branch_taken $end
$var reg 32 ; ex_mem_alu_result [31:0] $end
$var reg 1 < ex_mem_mem_write $end
$var reg 32 = ex_mem_pc_plus4 [31:0] $end
$var reg 5 > ex_mem_rd [4:0] $end
$var reg 32 ? ex_mem_rd2 [31:0] $end
$var reg 1 @ ex_mem_reg_write $end
$var reg 2 A ex_mem_result_src [1:0] $end
$var reg 32 B ex_srcA [31:0] $end
$var reg 4 C id_ex_alu_control [3:0] $end
$var reg 1 D id_ex_alu_src $end
$var reg 2 E id_ex_alu_src1 [1:0] $end
$var reg 1 F id_ex_branch $end
$var reg 3 G id_ex_funct3 [2:0] $end
$var reg 32 H id_ex_imm_ext [31:0] $end
$var reg 1 I id_ex_jalr $end
$var reg 1 J id_ex_jump $end
$var reg 1 K id_ex_mem_write $end
$var reg 32 L id_ex_pc [31:0] $end
$var reg 32 M id_ex_pc_plus4 [31:0] $end
$var reg 5 N id_ex_rd [4:0] $end
$var reg 32 O id_ex_rd1 [31:0] $end
$var reg 32 P id_ex_rd2 [31:0] $end
$var reg 1 Q id_ex_reg_write $end
$var reg 2 R id_ex_result_src [1:0] $end
$var reg 32 S if_id_instr [31:0] $end
$var reg 32 T if_id_pc [31:0] $end
$var reg 32 U if_id_pc_plus4 [31:0] $end
$var reg 32 V mem_wb_alu_result [31:0] $end
$var reg 32 W mem_wb_pc_plus4 [31:0] $end
$var reg 5 X mem_wb_rd [4:0] $end
$var reg 32 Y mem_wb_read_data [31:0] $end
$var reg 1 Z mem_wb_reg_write $end
$var reg 2 [ mem_wb_result_src [1:0] $end
$var reg 32 \ wb_result [31:0] $end
$scope module alu_unit $end
$var wire 4 ] alu_control [3:0] $end
$var wire 32 ^ src1 [31:0] $end
$var wire 32 _ src2 [31:0] $end
$var wire 1 6 zero $end
$var reg 32 ` result [31:0] $end
$upscope $end
$scope module control_unit $end
$var wire 3 a funct3 [2:0] $end
$var wire 7 b funct7 [6:0] $end
$var wire 7 c opcode [6:0] $end
$var reg 4 d alu_control [3:0] $end
$var reg 1 4 alu_src $end
$var reg 2 e alu_src1 [1:0] $end
$var reg 1 2 branch $end
$var reg 1 0 jalr $end
$var reg 1 / jump $end
$var reg 1 . mem_write $end
$var reg 1 + reg_write $end
$var reg 2 f result_src [1:0] $end
$upscope $end
$scope module dmem_unit $end
$var wire 32 g a [31:0] $end
$var wire 1 ! clk $end
$var wire 32 h rd [31:0] $end
$var wire 32 i wd [31:0] $end
$var wire 1 < we $end
$upscope $end
$scope module gen_unit $end
$var wire 32 j instr [31:0] $end
$var reg 32 k imm_ext [31:0] $end
$upscope $end
$scope module imem_unit $end
$var wire 32 l rd [31:0] $end
$var wire 32 m a [31:0] $end
$upscope $end
$scope module pc_adder_unit $end
$var wire 32 n y [31:0] $end
$var wire 32 o a [31:0] $end
$upscope $end
$scope module pc_unit $end
$var wire 1 ! clk $end
$var wire 32 p pc_next [31:0] $end
$var wire 1 " rst $end
$var reg 32 q pc [31:0] $end
$upscope $end
$scope module reg_unit $end
$var wire 5 r a1 [4:0] $end
$var wire 5 s a2 [4:0] $end
$var wire 5 t a3 [4:0] $end
$var wire 1 ! clk $end
$var wire 32 u wd3 [31:0] $end
$var wire 1 Z we3 $end
$var wire 32 v rd2 [31:0] $end
$var wire 32 w rd1 [31:0] $end
$upscope $end
$upscope $end
$upscope $end
$enddefinitions $end
$comment Show the parameter values. $end
$dumpall
$end
#0
$dumpvars
bx w
bx v
bx u
bx t
bx s
bx r
bx q
bx p
bx o
bx n
bx m
bx l
bx k
bx j
bx i
bx h
bx g
bx f
bx e
bx d
bx c
bx b
bx a
bx `
bx _
bx ^
bx ]
bx \
bx [
xZ
bx Y
bx X
bx W
bx V
bx U
bx T
bx S
bx R
xQ
bx P
bx O
bx N
bx M
bx L
xK
xJ
xI
bx H
bx G
xF
bx E
xD
bx C
bx B
bx A
x@
bx ?
bx >
bx =
x<
bx ;
0:
bx 9
bx 8
bx 7
x6
bx 5
x4
bx 3
x2
bx 1
x0
x/
x.
bx -
bx ,
x+
bx *
bx )
bx (
bx '
bx &
bx %
x$
bx0 #
1"
0!
$end
#5
b0 -
b0 w
b0 ,
b0 v
b0 3
b0 e
00
0/
02
b0 *
b0 f
0.
b0 5
b0 d
14
1+
16
b0 #
b10100000000000010010011 )
b10100000000000010010011 l
b10011 c
b0 a
b0 b
b0 r
b0 s
b0 1
b0 k
b0 9
b0 `
b100 '
b100 p
0$
b0 7
b0 _
b0 B
b0 ^
b0 \
b0 u
b100 %
b100 n
b0 &
b0 m
b0 o
b0 q
b0 U
b0 T
b10011 S
b10011 j
b0 C
b0 ]
b0 E
b0 R
0I
0J
0F
0K
0D
0Q
b0 G
b0 N
b0 8
b0 H
b0 P
b0 O
b0 M
b0 L
b0 A
0<
0@
b0 >
b0 =
b0 ?
b0 i
b0 ;
b0 g
b0 [
0Z
b0 X
b0 t
b0 W
b0 Y
b0 V
1!
#10
0!
0"
#15
bx ,
bx v
b1000 '
b1000 p
b101 s
b101 1
b101 k
b101000000000000100010011 )
b101000000000000100010011 l
bx Y
1D
1Q
b100 U
b10100000000000010010011 S
b10100000000000010010011 j
b1000 %
b1000 n
b100 &
b100 m
b100 o
b100 q
1!
#20
0!
#25
06
b100 #
b1100 '
b1100 p
b101 9
b101 `
b111100000000000110010011 )
b111100000000000110010011 l
b1010 s
b1010 1
b1010 k
b101 7
b101 _
b1100 %
b1100 n
b1000 &
b1000 m
b1000 o
b1000 q
b1000 U
b100 T
b101000000000000100010011 S
b101000000000000100010011 j
b1 N
b101 8
b101 H
bx P
b100 M
1@
1!
#30
0!
#35
b1010 #
b1010 9
b1010 `
b10000 '
b10000 p
b1010 7
b1010 _
b1111 s
b1111 1
b1111 k
b1010000000000001000010011 )
b1010000000000001000010011 l
1Z
b1 >
b100 =
bx ?
bx i
b101 ;
b101 g
b10 N
b1010 H
b1000 M
b1110 8
b100 L
b1100 U
b1000 T
b111100000000000110010011 S
b111100000000000110010011 j
b10000 %
b10000 n
b1100 &
b1100 m
b1100 o
b1100 q
1!
#40
0!
#45
b1110 #
b10100 '
b10100 p
b1111 9
b1111 `
b100001000001010010011 )
b100001000001010010011 l
b10100 s
b10100 1
b10100 k
b1111 7
b1111 _
b101 \
b101 u
b10100 %
b10100 n
b10000 &
b10000 m
b10000 o
b10000 q
b10000 U
b1100 T
b1010000000000001000010011 S
b1010000000000001000010011 j
b11 N
b1111 H
b1100 M
b10111 8
b1000 L
b10 >
b1000 =
b1010 ;
b1010 g
b1 X
b1 t
b100 W
b101 V
1!
#50
0!
#55
b10100 #
b101 -
b101 w
b101 ,
b101 v
b10100 9
b10100 `
b11000 '
b11000 p
b1010 \
b1010 u
b10100 7
b10100 _
b1 r
b1 s
b1 1
b1 k
b100000010000000100011 )
b100000010000000100011 l
b10 X
b10 t
b1000 W
b1010 V
b11 >
b1100 =
b1111 ;
b1111 g
b100 N
b10100 H
b10000 M
b100000 8
b1100 L
b10100 U
b10000 T
b100001000001010010011 S
b100001000001010010011 j
b11000 %
b11000 n
b10100 &
b10100 m
b10100 o
b10100 q
1!
#60
0!
#65
b0 -
b0 w
b110 #
b11100 '
b11100 p
1.
14
0+
b110 9
b110 `
b10011 )
b10011 l
b100011 c
b10 a
b0 r
b0 1
b0 k
b1 7
b1 _
b101 B
b101 ^
b1111 \
b1111 u
b11100 %
b11100 n
b11000 &
b11000 m
b11000 o
b11000 q
b11000 U
b10100 T
b100000010000000100011 S
b100000010000000100011 j
b101 N
b1 H
b101 P
b101 O
b10100 M
b10001 8
b10000 L
b100 >
b10000 =
b10100 ;
b10100 g
b11 X
b11 t
b1100 W
b1111 V
1!
#70
0!
#75
16
b0 #
b0 ,
b0 v
b0 9
b0 `
1+
0.
14
b100000 '
b100000 p
b10100 \
b10100 u
b0 7
b0 _
b0 B
b0 ^
b10011 c
b0 a
b0 s
b100 X
b100 t
b10000 W
b10100 V
b101 >
b10100 =
b101 ?
b101 i
b110 ;
b110 g
1K
0Q
b10 G
b0 N
b0 H
b0 O
b11000 M
b10100 8
b10100 L
b11100 U
b11000 T
b10011 S
b10011 j
b100000 %
b100000 n
b11100 &
b11100 m
b11100 o
b11100 q
1!
#80
0!
#85
b100100 '
b100100 p
b110 \
b110 u
b100100 %
b100100 n
b100000 &
b100000 m
b100000 o
b100000 q
b100000 U
b11100 T
0K
1Q
b0 G
b0 P
b11100 M
b11000 8
b11000 L
1<
0@
b0 >
b11000 =
b0 ;
b0 g
b101 X
b101 t
b10100 W
b110 V
1!
#90
0!
#95
b101000 '
b101000 p
b0 \
b0 u
b10001100000011 )
b10001100000011 l
0Z
b0 X
b0 t
b11000 W
b0 V
0<
1@
b11100 =
b0 ?
b0 i
b100000 M
b11100 8
b11100 L
b100100 U
b100000 T
b101 (
b101 h
b101000 %
b101000 n
b100100 &
b100100 m
b100100 o
b100100 q
1!
#100
0!
#105
b101100 '
b101100 p
b1 *
b1 f
14
1+
b11011110101011011011001110110111 )
b11011110101011011011001110110111 l
b11 c
b10 a
b101100 %
b101100 n
b101000 &
b101000 m
b101000 o
b101000 q
b101000 U
b100100 T
b10001100000011 S
b10001100000011 j
b100100 M
b100000 8
b100000 L
b100000 =
1Z
b11100 W
b101 Y
1!
#110
0!
#115
bx -
bx w
bx ,
bx v
b10 3
b10 e
b0 *
b0 f
14
1+
b110000 '
b110000 p
b110111 c
b11 a
b1101111 b
b11011 r
b1010 s
b11011110101011011011000000000000 1
b11011110101011011011000000000000 k
b1010000010111 )
b1010000010111 l
b100000 W
b100100 =
b1 R
b10 G
b110 N
b101000 M
b100100 8
b100100 L
b101100 U
b101000 T
b11011110101011011011001110110111 S
b11011110101011011011001110110111 j
b110000 %
b110000 n
b101100 &
b101100 m
b101100 o
b101100 q
1!
#120
0!
#125
b0 -
b0 w
b0 ,
b0 v
06
b11011110101011011011000000000000 #
b110100 '
b110100 p
b1 3
b1 e
14
1+
b11011110101011011011000000000000 9
b11011110101011011011000000000000 `
b10011 )
b10011 l
b10111 c
b1 a
b0 b
b0 r
b0 s
b1000000000000 1
b1000000000000 k
b11011110101011011011000000000000 7
b11011110101011011011000000000000 _
b110100 %
b110100 n
b110000 &
b110000 m
b110000 o
b110000 q
b110000 U
b101100 T
b1010000010111 S
b1010000010111 j
b10 E
b0 R
b11 G
b111 N
b11011110101011011011000000000000 H
bx P
bx O
b101100 M
b11011110101011011011000000101000 8
b101000 L
b1 A
b110 >
b101000 =
b100100 W
1!
#130
0!
#135
b1000000101100 #
b1000000101100 9
b1000000101100 `
b0 3
b0 e
14
1+
b111000 '
b111000 p
b101 \
b101 u
bx (
bx h
b1000000000000 7
b1000000000000 _
b101100 B
b101100 ^
b10011 c
b0 a
b0 1
b0 k
b1 [
b110 X
b110 t
b101000 W
b0 A
b111 >
b101100 =
bx ?
bx i
b11011110101011011011000000000000 ;
b11011110101011011011000000000000 g
b1 E
b1 G
b1000 N
b1000000000000 H
b0 P
b0 O
b110000 M
b1000000101100 8
b101100 L
b110100 U
b110000 T
b10011 S
b10011 j
b111000 %
b111000 n
b110100 &
b110100 m
b110100 o
b110100 q
1!
#140
0!
#145
16
b0 #
b111100 '
b111100 p
b0 9
b0 `
b0 7
b0 _
b0 B
b0 ^
b11011110101011011011000000000000 \
b11011110101011011011000000000000 u
b111100 %
b111100 n
b111000 &
b111000 m
b111000 o
b111000 q
b111000 U
b110100 T
b0 E
b0 G
b0 N
b0 H
b110100 M
b110000 8
b110000 L
b1000 >
b110000 =
b0 ?
b0 i
b1000000101100 ;
b1000000101100 g
b0 [
b111 X
b111 t
b101100 W
bx Y
b11011110101011011011000000000000 V
1!
#150
0!
#155
b1000000 '
b1000000 p
b1000000101100 \
b1000000101100 u
b101 (
b101 h
b110000000000010011101111 )
b110000000000010011101111 l
b1000 X
b1000 t
b110000 W
b1000000101100 V
b0 >
b110100 =
b0 ;
b0 g
b111000 M
b110100 8
b110100 L
b111100 U
b111000 T
b1000000 %
b1000000 n
b111100 &
b111100 m
b111100 o
b111100 q
1!
#160
0!
#165
bx ,
bx v
b1000100 '
b1000100 p
b10 *
b10 f
1/
04
1+
b100000000010100010011 )
b100000000010100010011 l
b1101111 c
b1100 s
b1100 1
b1100 k
b0 \
b0 u
b1000100 %
b1000100 n
b1000000 &
b1000000 m
b1000000 o
b1000000 q
b1000000 U
b111100 T
b110000000000010011101111 S
b110000000000010011101111 j
b111100 M
b111000 8
b111000 L
b111000 =
b0 X
b0 t
b110100 W
b101 Y
b0 V
1!
#170
0!
#175
x6
bx0 #
b101 ,
b101 v
1$
bx 9
bx `
14
0/
b0 *
b0 f
1+
b1001000 '
b1001000 p
bx 7
bx _
b10011 c
b1 s
b1 1
b1 k
b111000 W
b111100 =
b10 R
1J
0D
b1001 N
b1100 H
bx P
b1000000 M
b1001000 8
b111100 L
b1000100 U
b1000000 T
b100000000010100010011 S
b100000000010100010011 j
b1001000 %
b1001000 n
b1000100 &
b1000100 m
b1000100 o
b1000100 q
1!
#180
0!
#185
b0 ,
b0 v
16
b0 #
0$
b0 9
b0 `
b1001100 '
b1001100 p
b10100010011 )
b10100010011 l
b0 s
b0 1
b0 k
b0 7
b0 _
bx (
bx h
b1001100 %
b1001100 n
b1001000 &
b1001000 m
b1001000 o
b1001000 q
b0 U
b0 T
b10011 S
b10011 j
b0 R
0J
0Q
b0 N
b0 H
b0 P
b0 M
b0 8
b0 L
b10 A
b1001 >
b1000000 =
bx ?
bx i
bx ;
bx g
b111100 W
1!
#190
0!
#195
b1010000 '
b1010000 p
b1000000 \
b1000000 u
b101 (
b101 h
bx )
bx l
b10 [
b1001 X
b1001 t
b1000000 W
bx Y
bx V
b0 A
0@
b0 >
b0 =
b0 ?
b0 i
b0 ;
b0 g
1D
1Q
b1001100 U
b1001000 T
b10100010011 S
b10100010011 j
b1010000 %
b1010000 n
b1001100 &
b1001100 m
b1001100 o
b1001100 q
1!
#200
0!
#205
bx -
bx w
bx ,
bx v
b1010100 '
b1010100 p
04
0+
bx c
bx a
bx b
bx r
bx s
b0 \
b0 u
b1010100 %
b1010100 n
b1010000 &
b1010000 m
b1010000 o
b1010000 q
b1010000 U
b1001100 T
bx S
bx j
b1010 N
b1001100 M
b1001000 8
b1001000 L
1@
b0 [
0Z
b0 X
b0 t
b0 W
b101 Y
b0 V
1!
#210
0!
#215
x6
bx0 #
bx 9
bx `
b1011000 '
b1011000 p
bx 7
bx _
bx B
bx ^
1Z
b1010 >
b1001100 =
0D
0Q
bx G
bx N
bx P
bx O
b1010000 M
b1001100 8
b1001100 L
b1010100 U
b1010000 T
b1011000 %
b1011000 n
b1010100 &
b1010100 m
b1010100 o
b1010100 q
1!
#220
0!
#225
b1011100 '
b1011100 p
bx (
bx h
b1011100 %
b1011100 n
b1011000 &
b1011000 m
b1011000 o
b1011000 q
b1011000 U
b1010100 T
b1010100 M
b1010000 8
b1010000 L
0@
bx >
b1010000 =
bx ?
bx i
bx ;
bx g
b1010 X
b1010 t
b1001100 W
1!
#230
0!
#235
b1100000 '
b1100000 p
bx \
bx u
0Z
bx X
bx t
b1010000 W
bx Y
bx V
b1010100 =
b1011000 M
b1010100 8
b1010100 L
b1011100 U
b1011000 T
b1100000 %
b1100000 n
b1011100 &
b1011100 m
b1011100 o
b1011100 q
1!
#240
0!
#245
b1100100 '
b1100100 p
b1100100 %
b1100100 n
b1100000 &
b1100000 m
b1100000 o
b1100000 q
b1100000 U
b1011100 T
b1011100 M
b1011000 8
b1011000 L
b1011000 =
b1010100 W
1!
#250
0!
#255
b1101000 '
b1101000 p
b1011000 W
b1011100 =
b1100000 M
b1011100 8
b1011100 L
b1100100 U
b1100000 T
b1101000 %
b1101000 n
b1100100 &
b1100100 m
b1100100 o
b1100100 q
1!
#260
0!
#265
b1101100 '
b1101100 p
b1101100 %
b1101100 n
b1101000 &
b1101000 m
b1101000 o
b1101000 q
b1101000 U
b1100100 T
b1100100 M
b1100000 8
b1100000 L
b1100000 =
b1011100 W
1!
#270
0!
#275
b1110000 '
b1110000 p
b1100000 W
b1100100 =
b1101000 M
b1100100 8
b1100100 L
b1101100 U
b1101000 T
b1110000 %
b1110000 n
b1101100 &
b1101100 m
b1101100 o
b1101100 q
1!
#280
0!
#285
b1110100 '
b1110100 p
b1110100 %
b1110100 n
b1110000 &
b1110000 m
b1110000 o
b1110000 q
b1110000 U
b1101100 T
b1101100 M
b1101000 8
b1101000 L
b1101000 =
b1100100 W
1!
#290
0!
#295
b1111000 '
b1111000 p
b1101000 W
b1101100 =
b1110000 M
b1101100 8
b1101100 L
b1110100 U
b1110000 T
b1111000 %
b1111000 n
b1110100 &
b1110100 m
b1110100 o
b1110100 q
1!
#300
0!
#305
b1111100 '
b1111100 p
b1111100 %
b1111100 n
b1111000 &
b1111000 m
b1111000 o
b1111000 q
b1111000 U
b1110100 T
b1110100 M
b1110000 8
b1110000 L
b1110000 =
b1101100 W
1!
#310
0!
#315
b10000000 '
b10000000 p
b1110000 W
b1110100 =
b1111000 M
b1110100 8
b1110100 L
b1111100 U
b1111000 T
b10000000 %
b10000000 n
b1111100 &
b1111100 m
b1111100 o
b1111100 q
1!
#320
0!
#325
b10000100 '
b10000100 p
b10000100 %
b10000100 n
b10000000 &
b10000000 m
b10000000 o
b10000000 q
b10000000 U
b1111100 T
b1111100 M
b1111000 8
b1111000 L
b1111000 =
b1110100 W
1!
#330
0!
#335
b10001000 '
b10001000 p
b1111000 W
b1111100 =
b10000000 M
b1111100 8
b1111100 L
b10000100 U
b10000000 T
b10001000 %
b10001000 n
b10000100 &
b10000100 m
b10000100 o
b10000100 q
1!
#340
0!
#345
b10001100 '
b10001100 p
b10001100 %
b10001100 n
b10001000 &
b10001000 m
b10001000 o
b10001000 q
b10001000 U
b10000100 T
b10000100 M
b10000000 8
b10000000 L
b10000000 =
b1111100 W
1!
#350
0!
#355
b10010000 '
b10010000 p
b10000000 W
b10000100 =
b10001000 M
b10000100 8
b10000100 L
b10001100 U
b10001000 T
b10010000 %
b10010000 n
b10001100 &
b10001100 m
b10001100 o
b10001100 q
1!
#360
0!
#365
b10010100 '
b10010100 p
b10010100 %
b10010100 n
b10010000 &
b10010000 m
b10010000 o
b10010000 q
b10010000 U
b10001100 T
b10001100 M
b10001000 8
b10001000 L
b10001000 =
b10000100 W
1!
#370
0!
#375
b10011000 '
b10011000 p
b10001000 W
b10001100 =
b10010000 M
b10001100 8
b10001100 L
b10010100 U
b10010000 T
b10011000 %
b10011000 n
b10010100 &
b10010100 m
b10010100 o
b10010100 q
1!
#380
0!
#385
b10011100 '
b10011100 p
b10011100 %
b10011100 n
b10011000 &
b10011000 m
b10011000 o
b10011000 q
b10011000 U
b10010100 T
b10010100 M
b10010000 8
b10010000 L
b10010000 =
b10001100 W
1!
#390
0!
#395
b10100000 '
b10100000 p
b10010000 W
b10010100 =
b10011000 M
b10010100 8
b10010100 L
b10011100 U
b10011000 T
b10100000 %
b10100000 n
b10011100 &
b10011100 m
b10011100 o
b10011100 q
1!
#400
0!
#405
b10100100 '
b10100100 p
b10100100 %
b10100100 n
b10100000 &
b10100000 m
b10100000 o
b10100000 q
b10100000 U
b10011100 T
b10011100 M
b10011000 8
b10011000 L
b10011000 =
b10010100 W
1!
#410
0!
#415
b10101000 '
b10101000 p
b10011000 W
b10011100 =
b10100000 M
b10011100 8
b10011100 L
b10100100 U
b10100000 T
b10101000 %
b10101000 n
b10100100 &
b10100100 m
b10100100 o
b10100100 q
1!
#420
0!
#425
b10101100 '
b10101100 p
b10101100 %
b10101100 n
b10101000 &
b10101000 m
b10101000 o
b10101000 q
b10101000 U
b10100100 T
b10100100 M
b10100000 8
b10100000 L
b10100000 =
b10011100 W
1!
#430
0!
#435
b10110000 '
b10110000 p
b10100000 W
b10100100 =
b10101000 M
b10100100 8
b10100100 L
b10101100 U
b10101000 T
b10110000 %
b10110000 n
b10101100 &
b10101100 m
b10101100 o
b10101100 q
1!
#440
0!
#445
b10110100 '
b10110100 p
b10110100 %
b10110100 n
b10110000 &
b10110000 m
b10110000 o
b10110000 q
b10110000 U
b10101100 T
b10101100 M
b10101000 8
b10101000 L
b10101000 =
b10100100 W
1!
#450
0!
#455
b10111000 '
b10111000 p
b10101000 W
b10101100 =
b10110000 M
b10101100 8
b10101100 L
b10110100 U
b10110000 T
b10111000 %
b10111000 n
b10110100 &
b10110100 m
b10110100 o
b10110100 q
1!
#460
0!
#465
b10111100 '
b10111100 p
b10111100 %
b10111100 n
b10111000 &
b10111000 m
b10111000 o
b10111000 q
b10111000 U
b10110100 T
b10110100 M
b10110000 8
b10110000 L
b10110000 =
b10101100 W
1!
#470
0!
#475
b11000000 '
b11000000 p
b10110000 W
b10110100 =
b10111000 M
b10110100 8
b10110100 L
b10111100 U
b10111000 T
b11000000 %
b11000000 n
b10111100 &
b10111100 m
b10111100 o
b10111100 q
1!
#480
0!
#485
b11000100 '
b11000100 p
b11000100 %
b11000100 n
b11000000 &
b11000000 m
b11000000 o
b11000000 q
b11000000 U
b10111100 T
b10111100 M
b10111000 8
b10111000 L
b10111000 =
b10110100 W
1!
#490
0!
#495
b11001000 '
b11001000 p
b10111000 W
b10111100 =
b11000000 M
b10111100 8
b10111100 L
b11000100 U
b11000000 T
b11001000 %
b11001000 n
b11000100 &
b11000100 m
b11000100 o
b11000100 q
1!
#500
0!
#505
b11001100 '
b11001100 p
b11001100 %
b11001100 n
b11001000 &
b11001000 m
b11001000 o
b11001000 q
b11001000 U
b11000100 T
b11000100 M
b11000000 8
b11000000 L
b11000000 =
b10111100 W
1!
