cpu_test.vcd
$date
	Mon Mar 16 00:22:13 2026
$end
$version
	Icarus Verilog
$end
$timescale
	1s
$end
$scope module top_tb $end
$var reg 1 ! clk $end
$var reg 1 " reset $end
$scope module uut $end
$var wire 1 ! clk $end
$var wire 1 " reset $end
$var wire 1 # zero $end
$var wire 32 $ srcB_reg [31:0] $end
$var wire 32 % srcB_mux [31:0] $end
$var wire 32 & srcA [31:0] $end
$var wire 1 ' result_src_wire $end
$var wire 32 ( result_mux [31:0] $end
$var wire 1 ) reg_write_wire $end
$var wire 32 * read_data [31:0] $end
$var wire 32 + pc_plus4 [31:0] $end
$var wire 32 , pc_out [31:0] $end
$var wire 32 - pc_next [31:0] $end
$var wire 1 . mem_write_wire $end
$var wire 32 / instr [31:0] $end
$var wire 32 0 imm_ext [31:0] $end
$var wire 1 1 branch_wire $end
$var wire 32 2 branch_target [31:0] $end
$var wire 1 3 alu_src_wire $end
$var wire 32 4 alu_result [31:0] $end
$var wire 3 5 alu_ctrl_wire [2:0] $end
$var reg 1 6 pc_src $end
$scope module alu_unit $end
$var wire 32 7 src2 [31:0] $end
$var wire 1 # zero $end
$var wire 32 8 src1 [31:0] $end
$var wire 3 9 alu_control [2:0] $end
$var reg 32 : result [31:0] $end
$upscope $end
$scope module control_unit $end
$var wire 3 ; funct3 [2:0] $end
$var wire 7 < funct7 [6:0] $end
$var wire 7 = opcode [6:0] $end
$var reg 3 > alu_control [2:0] $end
$var reg 1 3 alu_src $end
$var reg 1 1 branch $end
$var reg 1 . mem_write $end
$var reg 1 ) reg_write $end
$var reg 1 ' result_src $end
$upscope $end
$scope module dmem_unit $end
$var wire 32 ? a [31:0] $end
$var wire 1 ! clk $end
$var wire 32 @ rd [31:0] $end
$var wire 1 . we $end
$var wire 32 A wd [31:0] $end
$upscope $end
$scope module gen_unit $end
$var wire 32 B instr [31:0] $end
$var reg 32 C imm_ext [31:0] $end
$upscope $end
$scope module imem_unit $end
$var wire 32 D rd [31:0] $end
$var wire 32 E a [31:0] $end
$upscope $end
$scope module pc_adder_unit $end
$var wire 32 F y [31:0] $end
$var wire 32 G a [31:0] $end
$upscope $end
$scope module pc_unit $end
$var wire 1 ! clk $end
$var wire 32 H pc_next [31:0] $end
$var wire 1 " rst $end
$var reg 32 I pc [31:0] $end
$upscope $end
$scope module reg_unit $end
$var wire 5 J a1 [4:0] $end
$var wire 5 K a2 [4:0] $end
$var wire 5 L a3 [4:0] $end
$var wire 1 ! clk $end
$var wire 32 M wd3 [31:0] $end
$var wire 1 ) we3 $end
$var wire 32 N rd2 [31:0] $end
$var wire 32 O rd1 [31:0] $end
$upscope $end
$upscope $end
$upscope $end
$enddefinitions $end
$comment Show the parameter values. $end
$dumpall
$end
#0
$dumpvars
bx O
bx N
bx M
bx L
bx K
bx J
bx I
bx H
bx G
bx F
bx E
bx D
bx C
bx B
bx A
bx @
bx ?
bx >
bx =
bx <
bx ;
bx :
bx 9
bx 8
bx 7
06
bx 5
bx 4
x3
bx 2
x1
bx 0
bx /
x.
bx -
bx ,
bx +
bx *
x)
bx (
x'
bx &
bx %
bx $
x#
1"
0!
$end
#5
0#
b101 (
b101 M
b101 4
b101 :
b101 ?
b0 &
b0 8
b0 O
b101 %
b101 7
01
0'
0.
b0 5
b0 9
b0 >
13
1)
b1 L
b101 K
b0 J
b0 <
b0 ;
b10011 =
b101 2
b101 0
b101 C
b100 -
b100 H
b10100000000000010010011 /
b10100000000000010010011 B
b10100000000000010010011 D
b100 +
b100 F
b0 ,
b0 E
b0 G
b0 I
1!
#10
0!
0"
#15
b10 L
b1000 -
b1000 H
b10100000000000100010011 /
b10100000000000100010011 B
b10100000000000100010011 D
b1000 +
b1000 F
b1001 2
b100 ,
b100 E
b100 G
b100 I
1!
#20
0!
#25
b1010 (
b1010 M
b1010 4
b1010 :
b1010 ?
b1010 %
b1010 7
b11 L
b1010 K
b1010 0
b1010 C
b1100 -
b1100 H
b101000000000000110010011 /
b101000000000000110010011 B
b101000000000000110010011 D
b1100 +
b1100 F
b10010 2
b1000 ,
b1000 E
b1000 G
b1000 I
1!
#30
0!
#35
16
1#
b0 (
b0 M
b101 $
b101 A
b101 N
b101 &
b101 8
b101 O
b0 4
b0 :
b0 ?
b1 5
b1 9
b1 >
11
03
0)
b101 %
b101 7
b1100 L
b10 K
b1 J
b1100011 =
b1100 0
b1100 C
b11000 -
b11000 H
b1000001000011001100011 /
b1000001000011001100011 B
b1000001000011001100011 D
b10000 +
b10000 F
b11000 2
b1100 ,
b1100 E
b1100 G
b1100 I
1!
#40
0!
#45
1#
b0 (
b0 M
b0 $
b0 A
b0 N
b0 &
b0 8
b0 O
b0 %
b0 7
b0 4
b0 :
b0 ?
13
1)
01
b0 5
b0 9
b0 >
b100 L
b0 K
b0 J
b10011 =
06
b0 0
b0 C
b1000010011 /
b1000010011 B
b1000010011 D
b11100 -
b11100 H
b11100 +
b11100 F
b11000 2
b11000 ,
b11000 E
b11000 G
b11000 I
1!
#50
0!
#55
0#
b11111111111111111111111111111011 (
b11111111111111111111111111111011 M
b1010 $
b1010 A
b1010 N
b101 &
b101 8
b101 O
06
b11111111111111111111111111111011 4
b11111111111111111111111111111011 :
b11111111111111111111111111111011 ?
b1 5
b1 9
b1 >
11
03
0)
b1010 %
b1010 7
b1000 L
b11 K
b1 J
b1100011 =
b1000 0
b1000 C
b100000 -
b100000 H
b1100001000010001100011 /
b1100001000010001100011 B
b1100001000010001100011 D
b100000 +
b100000 F
b100100 2
b11100 ,
b11100 E
b11100 G
b11100 I
1!
#60
0!
#65
b1100011 (
b1100011 M
b0 &
b0 8
b0 O
b1100011 %
b1100011 7
b1100011 4
b1100011 :
b1100011 ?
13
1)
01
b0 5
b0 9
b0 >
b101 L
b0 J
b11 <
b10011 =
b1100011 0
b1100011 C
b100100 -
b100100 H
b110001100000000001010010011 /
b110001100000000001010010011 B
b110001100000000001010010011 D
b100100 +
b100100 F
b10000011 2
b100000 ,
b100000 E
b100000 G
b100000 I
1!
#70
0!
#75
b11111111111111111111111111111011 (
b11111111111111111111111111111011 M
b101 &
b101 8
b101 O
16
b11111111111111111111111111111011 4
b11111111111111111111111111111011 :
b11111111111111111111111111111011 ?
b1 5
b1 9
b1 >
11
03
0)
b1010 %
b1010 7
b1100 L
b1 J
b0 <
b1 ;
b1100011 =
b1100 0
b1100 C
b110000 -
b110000 H
b1100001001011001100011 /
b1100001001011001100011 B
b1100001001011001100011 D
b101000 +
b101000 F
b110000 2
b100100 ,
b100100 E
b100100 G
b100100 I
1!
#80
0!
#85
1#
b0 (
b0 M
b0 $
b0 A
b0 N
b0 &
b0 8
b0 O
b0 %
b0 7
b0 4
b0 :
b0 ?
13
1)
01
b0 5
b0 9
b0 >
b110 L
b0 K
b0 J
b0 ;
b10011 =
06
b0 0
b0 C
b1100010011 /
b1100010011 B
b1100010011 D
b110100 -
b110100 H
b110100 +
b110100 F
b110000 2
b110000 ,
b110000 E
b110000 G
b110000 I
1!
#90
0!
#95
06
1#
b0 (
b0 M
b101 $
b101 A
b101 N
b101 &
b101 8
b101 O
b0 4
b0 :
b0 ?
b1 5
b1 9
b1 >
11
03
0)
b101 %
b101 7
b1000 L
b10 K
b1 J
b1 ;
b1100011 =
b1000 0
b1000 C
b111000 -
b111000 H
b1000001001010001100011 /
b1000001001010001100011 B
b1000001001010001100011 D
b111000 +
b111000 F
b111100 2
b110100 ,
b110100 E
b110100 G
b110100 I
1!
#100
0!
#105
0#
b1100011 (
b1100011 M
b1010 $
b1010 A
b1010 N
b0 &
b0 8
b0 O
b1100011 %
b1100011 7
b1100011 4
b1100011 :
b1100011 ?
13
1)
01
b0 5
b0 9
b0 >
b111 L
b11 K
b0 J
b11 <
b0 ;
b10011 =
06
b1100011 0
b1100011 C
b111100 -
b111100 H
b110001100000000001110010011 /
b110001100000000001110010011 B
b110001100000000001110010011 D
b111100 +
b111100 F
b10011011 2
b111000 ,
b111000 E
b111000 G
b111000 I
1!
#110
0!
#115
b1 (
b1 M
b101 &
b101 8
b101 O
16
b1 4
b1 :
b1 ?
b101 5
b101 9
b101 >
11
03
0)
b1010 %
b1010 7
b1100 L
b1 J
b0 <
b100 ;
b1100011 =
b1100 0
b1100 C
b1001000 -
b1001000 H
b1100001100011001100011 /
b1100001100011001100011 B
b1100001100011001100011 D
b1000000 +
b1000000 F
b1001000 2
b111100 ,
b111100 E
b111100 G
b111100 I
1!
#120
0!
#125
1#
b0 (
b0 M
b0 $
b0 A
b0 N
b0 &
b0 8
b0 O
b0 %
b0 7
b0 4
b0 :
b0 ?
13
1)
01
b0 5
b0 9
b0 >
b11100 L
b0 K
b0 J
b0 ;
b10011 =
06
b0 0
b0 C
b111000010011 /
b111000010011 B
b111000010011 D
b1001100 -
b1001100 H
b1001100 +
b1001100 F
b1001000 2
b1001000 ,
b1001000 E
b1001000 G
b1001000 I
1!
#130
0!
#135
1#
b0 (
b0 M
b101 $
b101 A
b101 N
b101 &
b101 8
b101 O
06
b0 4
b0 :
b0 ?
b101 5
b101 9
b101 >
11
03
0)
b101 %
b101 7
b1 K
b1 J
b100 ;
b1100011 =
b11100 0
b11100 C
b1010000 -
b1010000 H
b100001100111001100011 /
b100001100111001100011 B
b100001100111001100011 D
b1010000 +
b1010000 F
b1101000 2
b1001100 ,
b1001100 E
b1001100 G
b1001100 I
1!
#140
0!
#145
0#
b1100011 (
b1100011 M
b1010 $
b1010 A
b1010 N
b0 &
b0 8
b0 O
b1100011 %
b1100011 7
b1100011 4
b1100011 :
b1100011 ?
13
1)
01
b0 5
b0 9
b0 >
b11101 L
b11 K
b0 J
b11 <
b0 ;
b10011 =
06
b1100011 0
b1100011 C
b1010100 -
b1010100 H
b110001100000000111010010011 /
b110001100000000111010010011 B
b110001100000000111010010011 D
b1010100 +
b1010100 F
b10110011 2
b1010000 ,
b1010000 E
b1010000 G
b1010000 I
1!
#150
0!
#155
1#
16
b0 (
b0 M
b101 $
b101 A
b101 N
b101 &
b101 8
b101 O
b0 4
b0 :
b0 ?
b101 5
b101 9
b101 >
11
03
0)
b101 %
b101 7
b1100 L
b1 K
b1 J
b0 <
b101 ;
b1100011 =
b1100 0
b1100 C
b1100000 -
b1100000 H
b100001101011001100011 /
b100001101011001100011 B
b100001101011001100011 D
b1011000 +
b1011000 F
b1100000 2
b1010100 ,
b1010100 E
b1010100 G
b1010100 I
1!
#160
0!
#165
1#
b0 (
b0 M
b0 $
b0 A
b0 N
b0 &
b0 8
b0 O
b0 %
b0 7
b0 4
b0 :
b0 ?
13
1)
01
b0 5
b0 9
b0 >
b11110 L
b0 K
b0 J
b0 ;
b10011 =
06
b0 0
b0 C
b111100010011 /
b111100010011 B
b111100010011 D
b1100100 -
b1100100 H
b1100100 +
b1100100 F
b1100000 2
b1100000 ,
b1100000 E
b1100000 G
b1100000 I
1!
#170
0!
#175
06
0#
b1 (
b1 M
b1010 $
b1010 A
b1010 N
b101 &
b101 8
b101 O
b1 4
b1 :
b1 ?
b101 5
b101 9
b101 >
11
03
0)
b1010 %
b1010 7
b1000 L
b11 K
b1 J
b101 ;
b1100011 =
b1000 0
b1000 C
b1101000 -
b1101000 H
b1100001101010001100011 /
b1100001101010001100011 B
b1100001101010001100011 D
b1101000 +
b1101000 F
b1101100 2
b1100100 ,
b1100100 E
b1100100 G
b1100100 I
1!
#180
0!
#185
b1100011 (
b1100011 M
b0 &
b0 8
b0 O
b1100011 %
b1100011 7
b1100011 4
b1100011 :
b1100011 ?
13
1)
01
b0 5
b0 9
b0 >
b11111 L
b0 J
b11 <
b0 ;
b10011 =
b1100011 0
b1100011 C
b1101100 -
b1101100 H
b110001100000000111110010011 /
b110001100000000111110010011 B
b110001100000000111110010011 D
b1101100 +
b1101100 F
b11001011 2
b1101000 ,
b1101000 E
b1101000 G
b1101000 I
1!
#190
0!
#195
x#
bx (
bx M
bx $
bx A
bx N
bx &
bx 8
bx O
bx 4
bx :
bx ?
03
0)
bx %
bx 7
bx L
bx K
bx J
bx <
bx ;
bx =
b0 0
b0 C
b1110000 -
b1110000 H
bx /
bx B
bx D
b1110000 +
b1110000 F
b1101100 2
b1101100 ,
b1101100 E
b1101100 G
b1101100 I
1!
#200
0!
#205
b1110100 -
b1110100 H
b1110100 +
b1110100 F
b1110000 2
b1110000 ,
b1110000 E
b1110000 G
b1110000 I
1!
#210
0!
#215
b1111000 -
b1111000 H
b1111000 +
b1111000 F
b1110100 2
b1110100 ,
b1110100 E
b1110100 G
b1110100 I
1!
#220
0!
#225
b1111100 -
b1111100 H
b1111100 +
b1111100 F
b1111000 2
b1111000 ,
b1111000 E
b1111000 G
b1111000 I
1!
#230
0!
#235
b10000000 -
b10000000 H
b10000000 +
b10000000 F
b1111100 2
b1111100 ,
b1111100 E
b1111100 G
b1111100 I
1!
#240
0!
#245
b10000100 -
b10000100 H
b10000100 +
b10000100 F
b10000000 2
b10000000 ,
b10000000 E
b10000000 G
b10000000 I
1!
#250
0!
#255
b10001000 -
b10001000 H
b10001000 +
b10001000 F
b10000100 2
b10000100 ,
b10000100 E
b10000100 G
b10000100 I
1!
#260
0!
#265
b10001100 -
b10001100 H
b10001100 +
b10001100 F
b10001000 2
b10001000 ,
b10001000 E
b10001000 G
b10001000 I
1!
#270
0!
#275
b10010000 -
b10010000 H
b10010000 +
b10010000 F
b10001100 2
b10001100 ,
b10001100 E
b10001100 G
b10001100 I
1!
#280
0!
#285
b10010100 -
b10010100 H
b10010100 +
b10010100 F
b10010000 2
b10010000 ,
b10010000 E
b10010000 G
b10010000 I
1!
#290
0!
#295
b10011000 -
b10011000 H
b10011000 +
b10011000 F
b10010100 2
b10010100 ,
b10010100 E
b10010100 G
b10010100 I
1!
#300
0!
#305
b10011100 -
b10011100 H
b10011100 +
b10011100 F
b10011000 2
b10011000 ,
b10011000 E
b10011000 G
b10011000 I
1!
