cpu_test.vcd
$date
	Thu Mar 19 19:33:49 2026
$end
$version
	Icarus Verilog
$end
$timescale
	1s
$end
$scope module top_tb $end
$var reg 1 ! clk $end
$var reg 1 " reset $end
$scope module uut $end
$var wire 1 ! clk $end
$var wire 32 # ex_jalr_target [31:0] $end
$var wire 1 $ flush $end
$var wire 1 " reset $end
$var wire 1 % stall $end
$var wire 32 & pc_plus4 [31:0] $end
$var wire 32 ' pc_out [31:0] $end
$var wire 32 ( pc_next [31:0] $end
$var wire 32 ) mem_read_data [31:0] $end
$var wire 32 * if_instr [31:0] $end
$var wire 2 + id_result_src [1:0] $end
$var wire 1 , id_reg_write $end
$var wire 32 - id_rd2 [31:0] $end
$var wire 32 . id_rd1 [31:0] $end
$var wire 1 / id_mem_write $end
$var wire 1 0 id_jump $end
$var wire 1 1 id_jalr $end
$var wire 32 2 id_imm_ext [31:0] $end
$var wire 1 3 id_branch $end
$var wire 2 4 id_alu_src1 [1:0] $end
$var wire 1 5 id_alu_src $end
$var wire 4 6 id_alu_control [3:0] $end
$var wire 1 7 ex_zero $end
$var wire 32 8 ex_srcB_mux [31:0] $end
$var wire 32 9 ex_mem_fwd_val [31:0] $end
$var wire 32 : ex_branch_target [31:0] $end
$var wire 32 ; ex_alu_result [31:0] $end
$var reg 1 < ex_branch_taken $end
$var reg 32 = ex_mem_alu_result [31:0] $end
$var reg 1 > ex_mem_mem_write $end
$var reg 32 ? ex_mem_pc_plus4 [31:0] $end
$var reg 5 @ ex_mem_rd [4:0] $end
$var reg 32 A ex_mem_rd2 [31:0] $end
$var reg 1 B ex_mem_reg_write $end
$var reg 2 C ex_mem_result_src [1:0] $end
$var reg 32 D ex_rd1_fwd [31:0] $end
$var reg 32 E ex_rd2_fwd [31:0] $end
$var reg 32 F ex_srcA [31:0] $end
$var reg 2 G forward_a [1:0] $end
$var reg 2 H forward_b [1:0] $end
$var reg 4 I id_ex_alu_control [3:0] $end
$var reg 1 J id_ex_alu_src $end
$var reg 2 K id_ex_alu_src1 [1:0] $end
$var reg 1 L id_ex_branch $end
$var reg 3 M id_ex_funct3 [2:0] $end
$var reg 32 N id_ex_imm_ext [31:0] $end
$var reg 1 O id_ex_jalr $end
$var reg 1 P id_ex_jump $end
$var reg 1 Q id_ex_mem_write $end
$var reg 32 R id_ex_pc [31:0] $end
$var reg 32 S id_ex_pc_plus4 [31:0] $end
$var reg 5 T id_ex_rd [4:0] $end
$var reg 32 U id_ex_rd1 [31:0] $end
$var reg 32 V id_ex_rd2 [31:0] $end
$var reg 1 W id_ex_reg_write $end
$var reg 2 X id_ex_result_src [1:0] $end
$var reg 5 Y id_ex_rs1 [4:0] $end
$var reg 5 Z id_ex_rs2 [4:0] $end
$var reg 32 [ if_id_instr [31:0] $end
$var reg 32 \ if_id_pc [31:0] $end
$var reg 32 ] if_id_pc_plus4 [31:0] $end
$var reg 32 ^ mem_wb_alu_result [31:0] $end
$var reg 32 _ mem_wb_pc_plus4 [31:0] $end
$var reg 5 ` mem_wb_rd [4:0] $end
$var reg 32 a mem_wb_read_data [31:0] $end
$var reg 1 b mem_wb_reg_write $end
$var reg 2 c mem_wb_result_src [1:0] $end
$var reg 32 d wb_result [31:0] $end
$scope module alu_unit $end
$var wire 4 e alu_control [3:0] $end
$var wire 32 f src1 [31:0] $end
$var wire 32 g src2 [31:0] $end
$var wire 1 7 zero $end
$var reg 32 h result [31:0] $end
$upscope $end
$scope module control_unit $end
$var wire 3 i funct3 [2:0] $end
$var wire 7 j funct7 [6:0] $end
$var wire 7 k opcode [6:0] $end
$var reg 4 l alu_control [3:0] $end
$var reg 1 5 alu_src $end
$var reg 2 m alu_src1 [1:0] $end
$var reg 1 3 branch $end
$var reg 1 1 jalr $end
$var reg 1 0 jump $end
$var reg 1 / mem_write $end
$var reg 1 , reg_write $end
$var reg 2 n result_src [1:0] $end
$upscope $end
$scope module dmem_unit $end
$var wire 32 o a [31:0] $end
$var wire 1 ! clk $end
$var wire 32 p rd [31:0] $end
$var wire 32 q wd [31:0] $end
$var wire 1 > we $end
$upscope $end
$scope module gen_unit $end
$var wire 32 r instr [31:0] $end
$var reg 32 s imm_ext [31:0] $end
$upscope $end
$scope module imem_unit $end
$var wire 32 t rd [31:0] $end
$var wire 32 u a [31:0] $end
$upscope $end
$scope module pc_adder_unit $end
$var wire 32 v y [31:0] $end
$var wire 32 w a [31:0] $end
$upscope $end
$scope module pc_unit $end
$var wire 1 ! clk $end
$var wire 1 x en $end
$var wire 32 y pc_next [31:0] $end
$var wire 1 " rst $end
$var reg 32 z pc [31:0] $end
$upscope $end
$scope module reg_unit $end
$var wire 5 { a1 [4:0] $end
$var wire 5 | a2 [4:0] $end
$var wire 5 } a3 [4:0] $end
$var wire 1 ! clk $end
$var wire 32 ~ wd3 [31:0] $end
$var wire 1 b we3 $end
$var wire 32 !" rd2 [31:0] $end
$var wire 32 "" rd1 [31:0] $end
$upscope $end
$upscope $end
$upscope $end
$enddefinitions $end
$comment Show the parameter values. $end
$dumpall
$end
#0
$dumpvars
bx ""
bx !"
bx ~
bx }
bx |
bx {
bx z
bx y
xx
bx w
bx v
bx u
bx t
bx s
bx r
bx q
bx p
bx o
bx n
bx m
bx l
bx k
bx j
bx i
bx h
bx g
bx f
bx e
bx d
bx c
xb
bx a
bx `
bx _
bx ^
bx ]
bx \
bx [
bx Z
bx Y
bx X
xW
bx V
bx U
bx T
bx S
bx R
xQ
xP
xO
bx N
bx M
xL
bx K
xJ
bx I
bx H
bx G
bx F
bx E
bx D
bx C
xB
bx A
bx @
bx ?
x>
bx =
0<
bx ;
bx :
bx 9
bx 8
x7
bx 6
x5
bx 4
x3
bx 2
x1
x0
x/
bx .
bx -
x,
bx +
bx *
bx )
bx (
bx '
bx &
x%
x$
bx0 #
1"
0!
$end
#5
17
b0 #
b0 .
b0 ""
b0 -
b0 !"
b0 ;
b0 h
b0 4
b0 m
01
00
03
b0 +
b0 n
0/
b0 6
b0 l
15
1,
b100 (
b100 y
b0 8
b0 g
b0 F
b0 f
1x
0%
b10100000000000010010011 *
b10100000000000010010011 t
b10011 k
b0 i
b0 j
b0 {
b0 |
b0 2
b0 s
b0 E
b0 D
0$
b0 9
b0 H
b0 G
b0 d
b0 ~
b100 &
b100 v
b0 '
b0 u
b0 w
b0 z
b0 ]
b0 \
b10011 [
b10011 r
b0 Z
b0 Y
b0 :
b0 N
b0 V
b0 U
b0 S
b0 R
b0 M
b0 T
0J
b0 I
b0 e
b0 K
b0 X
0O
0P
0L
0Q
0W
b0 C
0>
0B
b0 @
b0 ?
b0 A
b0 q
b0 =
b0 o
b0 c
0b
b0 `
b0 }
b0 _
b0 a
b0 ^
1!
#10
0!
0"
#15
bx -
bx !"
b1000 (
b1000 y
b101 |
b101 2
b101 s
b100001000000100010011 *
b100001000000100010011 t
bx a
1J
1W
b100 ]
b10100000000000010010011 [
b10100000000000010010011 r
b1000 &
b1000 v
b100 '
b100 u
b100 w
b100 z
1!
#20
0!
#25
bx .
bx ""
07
b100 #
b1100 (
b1100 y
b101 ;
b101 h
b100010000000110010011 *
b100010000000110010011 t
b1 {
b1 |
b1 2
b1 s
b101 8
b101 g
bx E
b1100 &
b1100 v
b1000 '
b1000 u
b1000 w
b1000 z
b1000 ]
b100 \
b100001000000100010011 [
b100001000000100010011 r
b101 Z
b1 T
b101 :
b101 N
bx V
b100 S
1B
1!
#30
0!
#35
07
b110 #
b101 9
b101 E
b110 ;
b110 h
b101 F
b101 f
b10000 (
b10000 y
b10 H
b10 G
b1 8
b1 g
b101 D
b10 {
b101000000000001000010011 *
b101000000000001000010011 t
1b
b1 @
b100 ?
bx A
bx q
b101 =
b101 o
b1 Z
b1 Y
b10 T
b1 N
bx U
b1000 S
b101 :
b100 R
b1100 ]
b1000 \
b100010000000110010011 [
b100010000000110010011 r
b10000 &
b10000 v
b1100 '
b1100 u
b1100 w
b1100 z
1!
#40
0!
#45
b111 ;
b111 h
b110 F
b110 f
b0 .
b0 ""
b110 D
b10100 (
b10100 y
b110 9
b10011 *
b10011 t
b0 {
b1010 |
b1010 2
b1010 s
b1 H
b101 d
b101 ~
b10100 &
b10100 v
b10000 '
b10000 u
b10000 w
b10000 z
b10000 ]
b1100 \
b101000000000001000010011 [
b101000000000001000010011 r
b10 Y
b11 T
b1100 S
b1001 :
b1000 R
b10 @
b1000 ?
b101 A
b101 q
b110 =
b110 o
b1 `
b1 }
b100 _
b101 ^
1!
#50
0!
#55
b0 F
b0 f
b1010 #
b0 -
b0 !"
b111 9
bx E
b0 D
b1010 ;
b1010 h
b11000 (
b11000 y
b110 d
b110 ~
b0 H
b0 G
b1010 8
b1010 g
b0 |
b0 2
b0 s
b10000100000001010010011 *
b10000100000001010010011 t
b10 `
b10 }
b1000 _
b110 ^
b11 @
b1100 ?
b111 =
b111 o
b1010 Z
b0 Y
b100 T
b1010 N
b0 U
b10000 S
b10110 :
b1100 R
b10100 ]
b10000 \
b10011 [
b10011 r
b11000 &
b11000 v
b10100 '
b10100 u
b10100 w
b10100 z
1!
#60
0!
#65
bx .
bx ""
bx -
bx !"
17
b0 #
b11100 (
b11100 y
b0 ;
b0 h
b1010 9
b100000010000000100011 *
b100000010000000100011 t
b100 {
b100 |
b100 2
b100 s
b0 8
b0 g
b0 E
b111 d
b111 ~
b11100 &
b11100 v
b11000 '
b11000 u
b11000 w
b11000 z
b11000 ]
b10100 \
b10000100000001010010011 [
b10000100000001010010011 r
b0 Z
b0 T
b0 N
b0 V
b10100 S
b10000 :
b10000 R
b100 @
b10000 ?
bx A
bx q
b1010 =
b1010 o
b11 `
b11 }
b1100 _
b111 ^
1!
#70
0!
#75
07
b1110 #
b0 .
b0 ""
b101 -
b101 !"
b0 9
b1110 ;
b1110 h
b1010 F
b1010 f
1/
15
0,
b100000 (
b100000 y
b1010 d
b1010 ~
b1 H
b1 G
b100 8
b100 g
b1010 E
b1010 D
b100011 k
b10 i
b0 {
b1 |
b0 2
b0 s
b10011 *
b10011 t
b100 `
b100 }
b10000 _
b1010 ^
b0 @
b10100 ?
b0 A
b0 q
b0 =
b0 o
b100 Z
b100 Y
b101 T
b100 N
bx V
bx U
b11000 S
b11000 :
b10100 R
b11100 ]
b11000 \
b100000010000000100011 [
b100000010000000100011 r
b100000 &
b100000 v
b11100 '
b11100 u
b11100 w
b11100 z
1!
#80
0!
#85
b0 -
b0 !"
17
b0 #
b100100 (
b100100 y
1,
0/
15
b0 ;
b0 h
b0 F
b0 f
b1110 9
b10011 k
b0 i
b0 |
b0 8
b0 g
b101 E
b0 D
b0 H
b0 G
b0 d
b0 ~
b100100 &
b100100 v
b100000 '
b100000 u
b100000 w
b100000 z
b100000 ]
b11100 \
b10011 [
b10011 r
1Q
0W
b10 M
b1 Z
b0 Y
b0 T
b0 N
b101 V
b0 U
b11100 S
b11000 :
b11000 R
b101 @
b11000 ?
b1010 A
b1010 q
b1110 =
b1110 o
b0 `
b0 }
b10100 _
b0 ^
1!
#90
0!
#95
b0 9
b101000 (
b101000 y
b1110 d
b1110 ~
b0 E
b101 `
b101 }
b11000 _
b1110 ^
1>
0B
b0 @
b11100 ?
b101 A
b101 q
b0 =
b0 o
0Q
1W
b0 M
b0 Z
b0 V
b100000 S
b11100 :
b11100 R
b100100 ]
b100000 \
b101000 &
b101000 v
b100100 '
b100100 u
b100100 w
b100100 z
1!
#100
0!
#105
b101100 (
b101100 y
b10001100000011 *
b10001100000011 t
b0 d
b0 ~
b101100 &
b101100 v
b101000 '
b101000 u
b101000 w
b101000 z
b101 )
b101 p
b101000 ]
b100100 \
b100100 S
b100000 :
b100000 R
0>
1B
b100000 ?
b0 A
b0 q
0b
b0 `
b0 }
b11100 _
b0 ^
1!
#110
0!
#115
b1 +
b1 n
15
1,
b110000 (
b110000 y
b11 k
b10 i
b100110000001110010011 *
b100110000001110010011 t
1b
b100000 _
b101 a
b100100 ?
b101000 S
b100100 :
b100100 R
b101100 ]
b101000 \
b10001100000011 [
b10001100000011 r
b110000 &
b110000 v
b101100 '
b101100 u
b101100 w
b101100 z
1!
#120
0!
#125
0x
1%
bx .
bx ""
b101 -
b101 !"
b110100 (
b110100 y
b0 +
b0 n
15
1,
b10011 *
b10011 t
b10011 k
b0 i
b110 {
b1 |
b1 2
b1 s
b110100 &
b110100 v
b110000 '
b110000 u
b110000 w
b110000 z
b110000 ]
b101100 \
b100110000001110010011 [
b100110000001110010011 r
b1 X
b10 M
b110 T
b101100 S
b101000 :
b101000 R
b101000 ?
b100100 _
1!
#130
0!
#135
1x
0%
b101000 _
b1 C
b110 @
b101100 ?
b0 S
b0 :
b0 R
b0 M
b0 T
0J
b0 X
0W
1!
#140
0!
#145
b0 .
b0 ""
b0 -
b0 !"
07
b110 #
b111000 (
b111000 y
b110 ;
b110 h
b101 F
b101 f
b0 {
b0 |
b0 2
b0 s
b1 8
b1 g
b101 E
b101 D
b1 G
b101 d
b101 ~
b111000 &
b111000 v
b110100 '
b110100 u
b110100 w
b110100 z
b110100 ]
b110000 \
b10011 [
b10011 r
1J
1W
b1 Z
b110 Y
b111 T
b1 N
b101 V
bx U
b110000 S
b101101 :
b101100 R
b0 C
0B
b0 @
b0 ?
b1 c
b110 `
b110 }
b101100 _
1!
#150
0!
#155
17
b0 F
b0 f
b0 #
b110 9
b0 D
b0 ;
b0 h
b111100 (
b111100 y
b0 d
b0 ~
bx )
bx p
b0 G
b0 8
b0 g
b0 E
b0 c
0b
b0 `
b0 }
b0 _
1B
b111 @
b110000 ?
b101 A
b101 q
b110 =
b110 o
b0 Z
b0 Y
b0 T
b0 N
b0 V
b0 U
b110100 S
b110000 :
b110000 R
b111000 ]
b110100 \
b111100 &
b111100 v
b111000 '
b111000 u
b111000 w
b111000 z
1!
#160
0!
#165
b1000000 (
b1000000 y
b0 9
b1000001000000010110011 *
b1000001000000010110011 t
b101 )
b101 p
b110 d
b110 ~
b1000000 &
b1000000 v
b111100 '
b111100 u
b111100 w
b111100 z
b111100 ]
b111000 \
b111000 S
b110100 :
b110100 R
b0 @
b110100 ?
b0 A
b0 q
b0 =
b0 o
1b
b111 `
b111 }
b110000 _
bx a
b110 ^
1!
#170
0!
#175
b101 .
b101 ""
b110 -
b110 !"
05
1,
b1000100 (
b1000100 y
b0 d
b0 ~
b110011 k
b1 {
b10 |
b100001000000100110011 *
b100001000000100110011 t
b0 `
b0 }
b110100 _
b101 a
b0 ^
b111000 ?
b111100 S
b111000 :
b111000 R
b1000000 ]
b111100 \
b1000001000000010110011 [
b1000001000000010110011 r
b1000100 &
b1000100 v
b1000000 '
b1000000 u
b1000000 w
b1000000 z
1!
#180
0!
#185
b101 -
b101 !"
07
b1010 #
b1001000 (
b1001000 y
b1011 ;
b1011 h
b101 F
b101 f
b10011 *
b10011 t
b1 |
b110 8
b110 g
b110 E
b101 D
b1001000 &
b1001000 v
b1000100 '
b1000100 u
b1000100 w
b1000100 z
b1000100 ]
b1000000 \
b100001000000100110011 [
b100001000000100110011 r
0J
b10 Z
b1 Y
b1 T
b110 V
b101 U
b1000000 S
b111100 :
b111100 R
b111100 ?
b111000 _
1!
#190
0!
#195
07
b10110 #
b1011 F
b1011 f
b10110 ;
b10110 h
b0 .
b0 ""
b0 -
b0 !"
b1011 9
b1011 D
b1011 8
b1011 g
15
1,
b1001100 (
b1001100 y
bx )
bx p
b10 H
b10 G
b1011 E
b10011 k
b0 {
b0 |
b111100 _
b1 @
b1000000 ?
b110 A
b110 q
b1011 =
b1011 o
b1 Z
b10 T
b101 V
b1000100 S
b1000000 :
b1000000 R
b1001000 ]
b1000100 \
b10011 [
b10011 r
b1001100 &
b1001100 v
b1001000 '
b1001000 u
b1001000 w
b1001000 z
1!
#200
0!
#205
17
b0 #
b1010000 (
b1010000 y
b0 ;
b0 h
b0 F
b0 f
b10110 9
b0 8
b0 g
b0 E
b0 D
b0 H
b0 G
b1011 d
b1011 ~
b1010000 &
b1010000 v
b1001100 '
b1001100 u
b1001100 w
b1001100 z
b1001100 ]
b1001000 \
1J
b0 Z
b0 Y
b0 T
b0 V
b0 U
b1001000 S
b1000100 :
b1000100 R
b10 @
b1000100 ?
b1011 A
b1011 q
b10110 =
b10110 o
b1 `
b1 }
b1000000 _
bx a
b1011 ^
1!
#210
0!
#215
b0 9
b1010100 (
b1010100 y
b10110 d
b10110 ~
b101 )
b101 p
b1010000000000010000010011 *
b1010000000000010000010011 t
b10 `
b10 }
b1000100 _
b10110 ^
b0 @
b1001000 ?
b0 A
b0 q
b0 =
b0 o
b1001100 S
b1001000 :
b1001000 R
b1010000 ]
b1001100 \
b1010100 &
b1010100 v
b1010000 '
b1010000 u
b1010000 w
b1010000 z
1!
#220
0!
#225
bx -
bx !"
b1011000 (
b1011000 y
b100000000010000000100011 *
b100000000010000000100011 t
b10100 |
b10100 2
b10100 s
b0 d
b0 ~
b1011000 &
b1011000 v
b1010100 '
b1010100 u
b1010100 w
b1010100 z
b1010100 ]
b1010000 \
b1010000000000010000010011 [
b1010000000000010000010011 r
b1010000 S
b1001100 :
b1001100 R
b1001100 ?
b0 `
b0 }
b1001000 _
b101 a
b0 ^
1!
#230
0!
#235
07
b10100 #
b10100 ;
b10100 h
1/
15
0,
b1011100 (
b1011100 y
b10100 8
b10100 g
bx E
b100011 k
b10 i
b1000 |
b0 2
b0 s
b10011 *
b10011 t
b1001100 _
b1010000 ?
b10100 Z
b1000 T
b10100 N
bx V
b1010100 S
b1100100 :
b1010000 R
b1011000 ]
b1010100 \
b100000000010000000100011 [
b100000000010000000100011 r
b1011100 &
b1011100 v
b1011000 '
b1011000 u
b1011000 w
b1011000 z
1!
#240
0!
#245
b0 -
b0 !"
17
b0 #
b1100000 (
b1100000 y
1,
0/
15
b0 ;
b0 h
b10100 E
b10100 9
b10011 k
b0 i
b0 |
b0 8
b0 g
b10 H
bx )
bx p
b1100000 &
b1100000 v
b1011100 '
b1011100 u
b1011100 w
b1011100 z
b1011100 ]
b1011000 \
b10011 [
b10011 r
1Q
0W
b10 M
b1000 Z
b0 T
b0 N
b1011000 S
b1010100 :
b1010100 R
b1000 @
b1010100 ?
bx A
bx q
b10100 =
b10100 o
b1010000 _
1!
#250
0!
#255
b0 9
b0 E
b1100100 (
b1100100 y
b10100 d
b10100 ~
b101 )
b101 p
b0 H
b1000 `
b1000 }
b1010100 _
bx a
b10100 ^
1>
0B
b0 @
b1011000 ?
b10100 A
b10100 q
b0 =
b0 o
0Q
1W
b0 M
b0 Z
b0 V
b1011100 S
b1011000 :
b1011000 R
b1100000 ]
b1011100 \
b1100100 &
b1100100 v
b1100000 '
b1100000 u
b1100000 w
b1100000 z
1!
#260
0!
#265
b1101000 (
b1101000 y
b10010010000011 *
b10010010000011 t
b0 d
b0 ~
b1101000 &
b1101000 v
b1100100 '
b1100100 u
b1100100 w
b1100100 z
b10100 )
b10100 p
b1100100 ]
b1100000 \
b1100000 S
b1011100 :
b1011100 R
0>
1B
b1011100 ?
b0 A
b0 q
0b
b0 `
b0 }
b1011000 _
b101 a
b0 ^
1!
#270
0!
#275
b1 +
b1 n
15
1,
b1101100 (
b1101100 y
b11 k
b10 i
b10011 *
b10011 t
1b
b1011100 _
b10100 a
b1100000 ?
b1100100 S
b1100000 :
b1100000 R
b1101000 ]
b1100100 \
b10010010000011 [
b10010010000011 r
b1101100 &
b1101100 v
b1101000 '
b1101000 u
b1101000 w
b1101000 z
1!
#280
0!
#285
b1110000 (
b1110000 y
b0 +
b0 n
15
1,
b10011 k
b0 i
b1110000 &
b1110000 v
b1101100 '
b1101100 u
b1101100 w
b1101100 z
b1101100 ]
b1101000 \
b10011 [
b10011 r
b1 X
b10 M
b1001 T
b1101000 S
b1100100 :
b1100100 R
b1100100 ?
b1100000 _
1!
#290
0!
#295
b1110100 (
b1110100 y
b1100100 _
b1 C
b1001 @
b1101000 ?
b0 X
b0 M
b0 T
b1101100 S
b1101000 :
b1101000 R
b1110000 ]
b1101100 \
b1110100 &
b1110100 v
b1110000 '
b1110000 u
b1110000 w
b1110000 z
1!
#300
0!
#305
b1111000 (
b1111000 y
b10100000000010100010011 *
b10100000000010100010011 t
b10100 d
b10100 ~
b1111000 &
b1111000 v
b1110100 '
b1110100 u
b1110100 w
b1110100 z
b1110100 ]
b1110000 \
b1110000 S
b1101100 :
b1101100 R
b0 C
b0 @
b1101100 ?
b1 c
b1001 `
b1001 }
b1101000 _
1!
#310
0!
#315
b1110 -
b1110 !"
b1111100 (
b1111100 y
b0 d
b0 ~
b101 |
b101 2
b101 s
b10100000000010110010011 *
b10100000000010110010011 t
b0 c
b0 `
b0 }
b1101100 _
b1110000 ?
b1110100 S
b1110000 :
b1110000 R
b1111000 ]
b1110100 \
b10100000000010100010011 [
b10100000000010100010011 r
b1111100 &
b1111100 v
b1111000 '
b1111000 u
b1111000 w
b1111000 z
1!
#320
0!
#325
07
b100 #
b10000000 (
b10000000 y
b101 ;
b101 h
b101101010000011001100011 *
b101101010000011001100011 t
b101 8
b101 g
b1110 E
b10000000 &
b10000000 v
b1111100 '
b1111100 u
b1111100 w
b1111100 z
b1111100 ]
b1111000 \
b10100000000010110010011 [
b10100000000010110010011 r
b101 Z
b1010 T
b101 N
b1110 V
b1111000 S
b1111001 :
b1110100 R
b1110100 ?
b1110000 _
1!
#330
0!
#335
bx .
bx ""
bx -
bx !"
b101 9
b1 6
b1 l
13
05
0,
b10000100 (
b10000100 y
bx )
bx p
b1100011 k
b1010 {
b1011 |
b1100 2
b1100 s
b100000000011000010011 *
b100000000011000010011 t
b1110100 _
b1010 @
b1111000 ?
b1110 A
b1110 q
b101 =
b101 o
b1011 T
b1111100 S
b1111101 :
b1111000 R
b10000000 ]
b1111100 \
b101101010000011001100011 [
b101101010000011001100011 r
b10000100 &
b10000100 v
b10000000 '
b10000000 u
b10000000 w
b10000000 z
1!
#340
0!
#345
1$
1<
17
b0 .
b0 ""
b1011 -
b1011 !"
b10001000 (
b10001000 y
15
1,
03
b0 6
b0 l
b0 #
b101 F
b101 f
b10011 k
b0 {
b1 |
b1 2
b1 s
b0 ;
b0 h
b101 E
b101 D
b10 H
b1 G
b101 d
b101 ~
b10001000 &
b10001000 v
b10000100 '
b10000100 u
b10000100 w
b10000100 z
b10000100 ]
b10000000 \
b100000000011000010011 [
b100000000011000010011 r
b1 I
b1 e
1L
0J
0W
b1011 Z
b1010 Y
b1100 T
b1100 N
bx V
bx U
b10000000 S
b10001000 :
b1111100 R
b1011 @
b1111100 ?
b1010 `
b1010 }
b1111000 _
bx a
b101 ^
1!
#350
0!
#355
b0 8
b0 g
b0 F
b0 f
0$
b0 -
b0 !"
b0 9
b0 E
b0 D
b10001100 (
b10001100 y
17
b0 #
b10100 )
b10100 p
b0 H
b0 G
b0 ;
b0 h
0<
b0 |
b0 2
b0 s
b11000010011 *
b11000010011 t
b1011 `
b1011 }
b1111100 _
0B
b1100 @
b10000000 ?
b101 A
b101 q
b0 =
b0 o
b0 Z
b0 Y
b0 N
b0 V
b0 U
b0 S
b0 :
b0 R
b0 T
b0 I
b0 e
0L
b0 ]
b0 \
b10011 [
b10011 r
b10001100 &
b10001100 v
b10001000 '
b10001000 u
b10001000 w
b10001000 z
1!
#360
0!
#365
b10010000 (
b10010000 y
bx *
bx t
b0 d
b0 ~
b10010000 &
b10010000 v
b10001100 '
b10001100 u
b10001100 w
b10001100 z
b10001100 ]
b10001000 \
b11000010011 [
b11000010011 r
1J
1W
b0 @
b0 ?
b0 A
b0 q
0b
b1100 `
b1100 }
b10000000 _
b10100 a
b0 ^
1!
#370
0!
#375
bx .
bx ""
bx -
bx !"
05
0,
b10010100 (
b10010100 y
bx k
bx i
bx j
bx {
bx |
b0 `
b0 }
b0 _
1B
b1100 T
b10001100 S
b10001000 :
b10001000 R
b10010000 ]
b10001100 \
bx [
bx r
b10010100 &
b10010100 v
b10010000 '
b10010000 u
b10010000 w
b10010000 z
1!
#380
0!
#385
x7
bx0 #
b10011000 (
b10011000 y
bx ;
bx h
bx F
bx f
bx 8
bx g
bx E
bx D
b10011000 &
b10011000 v
b10010100 '
b10010100 u
b10010100 w
b10010100 z
b10010100 ]
b10010000 \
0J
0W
bx M
bx Z
bx Y
bx T
bx V
bx U
b10010000 S
b10001100 :
b10001100 R
b1100 @
b10001100 ?
1b
1!
#390
0!
#395
bx 9
b10011100 (
b10011100 y
bx )
bx p
b1100 `
b1100 }
b10001100 _
0B
bx @
b10010000 ?
bx A
bx q
bx =
bx o
b10010100 S
b10010000 :
b10010000 R
b10011000 ]
b10010100 \
b10011100 &
b10011100 v
b10011000 '
b10011000 u
b10011000 w
b10011000 z
1!
#400
0!
#405
b10100000 (
b10100000 y
bx d
bx ~
b10100000 &
b10100000 v
b10011100 '
b10011100 u
b10011100 w
b10011100 z
b10011100 ]
b10011000 \
b10011000 S
b10010100 :
b10010100 R
b10010100 ?
0b
bx `
bx }
b10010000 _
bx a
bx ^
1!
#410
0!
#415
b10100100 (
b10100100 y
b10010100 _
b10011000 ?
b10011100 S
b10011000 :
b10011000 R
b10100000 ]
b10011100 \
b10100100 &
b10100100 v
b10100000 '
b10100000 u
b10100000 w
b10100000 z
1!
#420
0!
#425
b10101000 (
b10101000 y
b10101000 &
b10101000 v
b10100100 '
b10100100 u
b10100100 w
b10100100 z
b10100100 ]
b10100000 \
b10100000 S
b10011100 :
b10011100 R
b10011100 ?
b10011000 _
1!
#430
0!
#435
b10101100 (
b10101100 y
b10011100 _
b10100000 ?
b10100100 S
b10100000 :
b10100000 R
b10101000 ]
b10100100 \
b10101100 &
b10101100 v
b10101000 '
b10101000 u
b10101000 w
b10101000 z
1!
#440
0!
#445
b10110000 (
b10110000 y
b10110000 &
b10110000 v
b10101100 '
b10101100 u
b10101100 w
b10101100 z
b10101100 ]
b10101000 \
b10101000 S
b10100100 :
b10100100 R
b10100100 ?
b10100000 _
1!
#450
0!
#455
b10110100 (
b10110100 y
b10100100 _
b10101000 ?
b10101100 S
b10101000 :
b10101000 R
b10110000 ]
b10101100 \
b10110100 &
b10110100 v
b10110000 '
b10110000 u
b10110000 w
b10110000 z
1!
#460
0!
#465
b10111000 (
b10111000 y
b10111000 &
b10111000 v
b10110100 '
b10110100 u
b10110100 w
b10110100 z
b10110100 ]
b10110000 \
b10110000 S
b10101100 :
b10101100 R
b10101100 ?
b10101000 _
1!
#470
0!
#475
b10111100 (
b10111100 y
b10101100 _
b10110000 ?
b10110100 S
b10110000 :
b10110000 R
b10111000 ]
b10110100 \
b10111100 &
b10111100 v
b10111000 '
b10111000 u
b10111000 w
b10111000 z
1!
#480
0!
#485
b11000000 (
b11000000 y
b11000000 &
b11000000 v
b10111100 '
b10111100 u
b10111100 w
b10111100 z
b10111100 ]
b10111000 \
b10111000 S
b10110100 :
b10110100 R
b10110100 ?
b10110000 _
1!
#490
0!
#495
b11000100 (
b11000100 y
b10110100 _
b10111000 ?
b10111100 S
b10111000 :
b10111000 R
b11000000 ]
b10111100 \
b11000100 &
b11000100 v
b11000000 '
b11000000 u
b11000000 w
b11000000 z
1!
#500
0!
#505
b11001000 (
b11001000 y
b11001000 &
b11001000 v
b11000100 '
b11000100 u
b11000100 w
b11000100 z
b11000100 ]
b11000000 \
b11000000 S
b10111100 :
b10111100 R
b10111100 ?
b10111000 _
1!
#510
0!
#515
b11001100 (
b11001100 y
b10111100 _
b11000000 ?
b11000100 S
b11000000 :
b11000000 R
b11001000 ]
b11000100 \
b11001100 &
b11001100 v
b11001000 '
b11001000 u
b11001000 w
b11001000 z
1!
#520
0!
#525
b11010000 (
b11010000 y
b11010000 &
b11010000 v
b11001100 '
b11001100 u
b11001100 w
b11001100 z
b11001100 ]
b11001000 \
b11001000 S
b11000100 :
b11000100 R
b11000100 ?
b11000000 _
1!
#530
0!
#535
b11010100 (
b11010100 y
b11000100 _
b11001000 ?
b11001100 S
b11001000 :
b11001000 R
b11010000 ]
b11001100 \
b11010100 &
b11010100 v
b11010000 '
b11010000 u
b11010000 w
b11010000 z
1!
#540
0!
#545
b11011000 (
b11011000 y
b11011000 &
b11011000 v
b11010100 '
b11010100 u
b11010100 w
b11010100 z
b11010100 ]
b11010000 \
b11010000 S
b11001100 :
b11001100 R
b11001100 ?
b11001000 _
1!
#550
0!
#555
b11011100 (
b11011100 y
b11001100 _
b11010000 ?
b11010100 S
b11010000 :
b11010000 R
b11011000 ]
b11010100 \
b11011100 &
b11011100 v
b11011000 '
b11011000 u
b11011000 w
b11011000 z
1!
#560
0!
#565
b11100000 (
b11100000 y
b11100000 &
b11100000 v
b11011100 '
b11011100 u
b11011100 w
b11011100 z
b11011100 ]
b11011000 \
b11011000 S
b11010100 :
b11010100 R
b11010100 ?
b11010000 _
1!
#570
0!
#575
b11100100 (
b11100100 y
b11010100 _
b11011000 ?
b11011100 S
b11011000 :
b11011000 R
b11100000 ]
b11011100 \
b11100100 &
b11100100 v
b11100000 '
b11100000 u
b11100000 w
b11100000 z
1!
#580
0!
#585
b11101000 (
b11101000 y
b11101000 &
b11101000 v
b11100100 '
b11100100 u
b11100100 w
b11100100 z
b11100100 ]
b11100000 \
b11100000 S
b11011100 :
b11011100 R
b11011100 ?
b11011000 _
1!
#590
0!
#595
b11101100 (
b11101100 y
b11011100 _
b11100000 ?
b11100100 S
b11100000 :
b11100000 R
b11101000 ]
b11100100 \
b11101100 &
b11101100 v
b11101000 '
b11101000 u
b11101000 w
b11101000 z
1!
#600
0!
#605
b11110000 (
b11110000 y
b11110000 &
b11110000 v
b11101100 '
b11101100 u
b11101100 w
b11101100 z
b11101100 ]
b11101000 \
b11101000 S
b11100100 :
b11100100 R
b11100100 ?
b11100000 _
1!
