cpu_test.vcd
$date
	Mon Mar 16 00:25:58 2026
$end
$version
	Icarus Verilog
$end
$timescale
	1s
$end
$scope module top_tb $end
$var reg 1 ! clk $end
$var reg 1 " reset $end
$scope module uut $end
$var wire 1 ! clk $end
$var wire 32 # jalr_target [31:0] $end
$var wire 1 " reset $end
$var wire 1 $ zero $end
$var wire 32 % srcB_reg [31:0] $end
$var wire 32 & srcB_mux [31:0] $end
$var wire 32 ' srcA [31:0] $end
$var wire 2 ( result_src_wire [1:0] $end
$var wire 1 ) reg_write_wire $end
$var wire 32 * read_data [31:0] $end
$var wire 32 + pc_plus4 [31:0] $end
$var wire 32 , pc_out [31:0] $end
$var wire 32 - pc_next [31:0] $end
$var wire 1 . mem_write_wire $end
$var wire 1 / jump_wire $end
$var wire 1 0 jalr_wire $end
$var wire 32 1 instr [31:0] $end
$var wire 32 2 imm_ext [31:0] $end
$var wire 1 3 branch_wire $end
$var wire 32 4 branch_target [31:0] $end
$var wire 1 5 alu_src_wire $end
$var wire 32 6 alu_result [31:0] $end
$var wire 3 7 alu_ctrl_wire [2:0] $end
$var reg 1 8 branch_taken $end
$var reg 32 9 result_mux [31:0] $end
$scope module alu_unit $end
$var wire 32 : src2 [31:0] $end
$var wire 1 $ zero $end
$var wire 32 ; src1 [31:0] $end
$var wire 3 < alu_control [2:0] $end
$var reg 32 = result [31:0] $end
$upscope $end
$scope module control_unit $end
$var wire 3 > funct3 [2:0] $end
$var wire 7 ? funct7 [6:0] $end
$var wire 7 @ opcode [6:0] $end
$var reg 3 A alu_control [2:0] $end
$var reg 1 5 alu_src $end
$var reg 1 3 branch $end
$var reg 1 0 jalr $end
$var reg 1 / jump $end
$var reg 1 . mem_write $end
$var reg 1 ) reg_write $end
$var reg 2 B result_src [1:0] $end
$upscope $end
$scope module dmem_unit $end
$var wire 32 C a [31:0] $end
$var wire 1 ! clk $end
$var wire 32 D rd [31:0] $end
$var wire 1 . we $end
$var wire 32 E wd [31:0] $end
$upscope $end
$scope module gen_unit $end
$var wire 32 F instr [31:0] $end
$var reg 32 G imm_ext [31:0] $end
$upscope $end
$scope module imem_unit $end
$var wire 32 H rd [31:0] $end
$var wire 32 I a [31:0] $end
$upscope $end
$scope module pc_adder_unit $end
$var wire 32 J y [31:0] $end
$var wire 32 K a [31:0] $end
$upscope $end
$scope module pc_unit $end
$var wire 1 ! clk $end
$var wire 32 L pc_next [31:0] $end
$var wire 1 " rst $end
$var reg 32 M pc [31:0] $end
$upscope $end
$scope module reg_unit $end
$var wire 5 N a1 [4:0] $end
$var wire 5 O a2 [4:0] $end
$var wire 5 P a3 [4:0] $end
$var wire 1 ! clk $end
$var wire 32 Q wd3 [31:0] $end
$var wire 1 ) we3 $end
$var wire 32 R rd2 [31:0] $end
$var wire 32 S rd1 [31:0] $end
$upscope $end
$upscope $end
$upscope $end
$enddefinitions $end
$comment Show the parameter values. $end
$dumpall
$end
#0
$dumpvars
bx S
bx R
bx Q
bx P
bx O
bx N
bx M
bx L
bx K
bx J
bx I
bx H
bx G
bx F
bx E
bx D
bx C
bx B
bx A
bx @
bx ?
bx >
bx =
bx <
bx ;
bx :
bx 9
08
bx 7
bx 6
x5
bx 4
x3
bx 2
bx 1
x0
x/
x.
bx -
bx ,
bx +
bx *
x)
bx (
bx '
bx &
bx %
x$
bx0 #
1"
0!
$end
#5
0$
b101 9
b101 Q
b100 #
b101 6
b101 =
b101 C
b0 '
b0 ;
b0 S
b101 &
b101 :
b100 -
b100 L
00
0/
03
b0 (
b0 B
0.
b0 7
b0 <
b0 A
15
1)
b1 P
b101 O
b0 N
b0 ?
b0 >
b10011 @
b101 4
b101 2
b101 G
b10100000000000010010011 1
b10100000000000010010011 F
b10100000000000010010011 H
b100 +
b100 J
b0 ,
b0 I
b0 K
b0 M
1!
#10
0!
0"
#15
b1010 9
b1010 Q
b1010 #
b1010 6
b1010 =
b1010 C
b1010 &
b1010 :
b1000 -
b1000 L
b10 P
b1010 O
b1010 2
b1010 G
b101000000000000100010011 1
b101000000000000100010011 F
b101000000000000100010011 H
b1000 +
b1000 J
b1110 4
b100 ,
b100 I
b100 K
b100 M
1!
#20
0!
#25
x$
bx0 #
b1100 9
b1100 Q
bx 6
bx =
bx C
b10 (
b10 B
1/
05
1)
bx &
bx :
b10100 -
b10100 L
b1001 P
b1100 O
b1101111 @
b1100 2
b1100 G
b110000000000010011101111 1
b110000000000010011101111 F
b110000000000010011101111 H
b1100 +
b1100 J
b10100 4
b1000 ,
b1000 I
b1000 K
b1000 M
1!
#30
0!
#35
1$
b0 #
b0 6
b0 =
b0 C
b0 %
b0 E
b0 R
b0 &
b0 :
15
0/
b0 (
b0 B
1)
b11 P
b0 O
b10011 @
b0 2
b0 G
b11000 -
b11000 L
b0 9
b0 Q
b110010011 1
b110010011 F
b110010011 H
b11000 +
b11000 J
b10100 4
b10100 ,
b10100 I
b10100 K
b10100 M
1!
#40
0!
#45
0$
b10100 9
b10100 Q
b10100 #
bx %
bx E
bx R
b10100 6
b10100 =
b10100 C
b10100 &
b10100 :
b11100 -
b11100 L
b100 P
b10100 O
b10100 2
b10100 G
b1010000000000001000010011 1
b1010000000000001000010011 F
b1010000000000001000010011 H
b11100 +
b11100 J
b101100 4
b11000 ,
b11000 I
b11000 K
b11000 M
1!
#50
0!
#55
b101000 9
b101000 Q
b101000 #
b101000 6
b101000 =
b101000 C
15
1)
b101000 &
b101000 :
b100000 -
b100000 L
b1000 O
b1 ?
b101000 2
b101000 G
b10100000000000001000010011 1
b10100000000000001000010011 F
b10100000000000001000010011 H
b100000 +
b100000 J
b1000100 4
b11100 ,
b11100 I
b11100 K
b11100 M
1!
#60
0!
#65
0$
b101000 #
b0 %
b0 E
b0 R
b101000 '
b101000 ;
b101000 S
b100100 9
b100100 Q
b101000 6
b101000 =
b101000 C
b10 (
b10 B
10
15
1)
b0 &
b0 :
b101000 -
b101000 L
b101 P
b0 O
b100 N
b0 ?
b1100111 @
b0 2
b0 G
b100000001011100111 1
b100000001011100111 F
b100000001011100111 H
b100100 +
b100100 J
b100000 4
b100000 ,
b100000 I
b100000 K
b100000 M
1!
#70
0!
#75
1$
b0 #
b0 6
b0 =
b0 C
b0 '
b0 ;
b0 S
b101100 -
b101100 L
00
b0 (
b0 B
15
1)
b110 P
b0 N
b10011 @
b0 9
b0 Q
b1100010011 1
b1100010011 F
b1100010011 H
b101100 +
b101100 J
b101000 4
b101000 ,
b101000 I
b101000 K
b101000 M
1!
#80
0!
#85
x$
bx0 #
bx %
bx E
bx R
b110000 9
b110000 Q
bx 6
bx =
bx C
b10 (
b10 B
1/
05
1)
bx &
bx :
b111100 -
b111100 L
b1 P
b10000 O
b1101111 @
b10000 2
b10000 G
b1000000000000000011101111 1
b1000000000000000011101111 F
b1000000000000000011101111 H
b110000 +
b110000 J
b111100 4
b101100 ,
b101100 I
b101100 K
b101100 M
1!
#90
0!
#95
0$
b10100 #
b10100 6
b10100 =
b10100 C
b10100 &
b10100 :
15
0/
b0 (
b0 B
1)
b1000 P
b10100 O
b10011 @
b10100 2
b10100 G
b1000000 -
b1000000 L
b10100 9
b10100 Q
b1010000000000010000010011 1
b1010000000000010000010011 F
b1010000000000010000010011 H
b1000000 +
b1000000 J
b1010000 4
b111100 ,
b111100 I
b111100 K
b111100 M
1!
#100
0!
#105
0$
b110000 #
b0 %
b0 E
b0 R
b110000 '
b110000 ;
b110000 S
b1000100 9
b1000100 Q
b110000 6
b110000 =
b110000 C
b10 (
b10 B
10
15
1)
b0 &
b0 :
b110000 -
b110000 L
b0 P
b0 O
b1 N
b1100111 @
b0 2
b0 G
b1000000001100111 1
b1000000001100111 F
b1000000001100111 H
b1000100 +
b1000100 J
b1000000 4
b1000000 ,
b1000000 I
b1000000 K
b1000000 M
1!
#110
0!
#115
b1100010 #
b0 '
b0 ;
b0 S
b110100 -
b110100 L
b1100011 6
b1100011 =
b1100011 C
00
b0 (
b0 B
15
1)
b1100011 &
b1100011 :
b111 P
b11 O
b0 N
b11 ?
b10011 @
b1100011 2
b1100011 G
b1100011 9
b1100011 Q
b110001100000000001110010011 1
b110001100000000001110010011 F
b110001100000000001110010011 H
b110100 +
b110100 J
b10010011 4
b110000 ,
b110000 I
b110000 K
b110000 M
1!
#120
0!
#125
1$
b0 9
b0 Q
b0 #
b0 6
b0 =
b0 C
15
1)
b0 &
b0 :
b111000 -
b111000 L
b0 P
b0 O
b0 ?
b0 2
b0 G
b10011 1
b10011 F
b10011 H
b111000 +
b111000 J
b110100 4
b110100 ,
b110100 I
b110100 K
b110100 M
1!
#130
0!
#135
b111100 -
b111100 L
b111100 +
b111100 J
b111000 4
b111000 ,
b111000 I
b111000 K
b111000 M
1!
#140
0!
#145
0$
b10100 9
b10100 Q
b10100 #
bx %
bx E
bx R
b10100 6
b10100 =
b10100 C
b10100 &
b10100 :
b1000000 -
b1000000 L
b1000 P
b10100 O
b10100 2
b10100 G
b1010000000000010000010011 1
b1010000000000010000010011 F
b1010000000000010000010011 H
b1000000 +
b1000000 J
b1010000 4
b111100 ,
b111100 I
b111100 K
b111100 M
1!
#150
0!
#155
0$
b110000 #
b0 %
b0 E
b0 R
b110000 '
b110000 ;
b110000 S
b1000100 9
b1000100 Q
b110000 6
b110000 =
b110000 C
b10 (
b10 B
10
15
1)
b0 &
b0 :
b110000 -
b110000 L
b0 P
b0 O
b1 N
b1100111 @
b0 2
b0 G
b1000000001100111 1
b1000000001100111 F
b1000000001100111 H
b1000100 +
b1000100 J
b1000000 4
b1000000 ,
b1000000 I
b1000000 K
b1000000 M
1!
#160
0!
#165
b1100010 #
b0 '
b0 ;
b0 S
b110100 -
b110100 L
b1100011 6
b1100011 =
b1100011 C
00
b0 (
b0 B
15
1)
b1100011 &
b1100011 :
b111 P
b11 O
b0 N
b11 ?
b10011 @
b1100011 2
b1100011 G
b1100011 9
b1100011 Q
b110001100000000001110010011 1
b110001100000000001110010011 F
b110001100000000001110010011 H
b110100 +
b110100 J
b10010011 4
b110000 ,
b110000 I
b110000 K
b110000 M
1!
#170
0!
#175
1$
b0 9
b0 Q
b0 #
b0 6
b0 =
b0 C
15
1)
b0 &
b0 :
b111000 -
b111000 L
b0 P
b0 O
b0 ?
b0 2
b0 G
b10011 1
b10011 F
b10011 H
b111000 +
b111000 J
b110100 4
b110100 ,
b110100 I
b110100 K
b110100 M
1!
#180
0!
#185
b111100 -
b111100 L
b111100 +
b111100 J
b111000 4
b111000 ,
b111000 I
b111000 K
b111000 M
1!
#190
0!
#195
0$
b10100 9
b10100 Q
b10100 #
bx %
bx E
bx R
b10100 6
b10100 =
b10100 C
b10100 &
b10100 :
b1000000 -
b1000000 L
b1000 P
b10100 O
b10100 2
b10100 G
b1010000000000010000010011 1
b1010000000000010000010011 F
b1010000000000010000010011 H
b1000000 +
b1000000 J
b1010000 4
b111100 ,
b111100 I
b111100 K
b111100 M
1!
#200
0!
#205
0$
b110000 #
b0 %
b0 E
b0 R
b110000 '
b110000 ;
b110000 S
b1000100 9
b1000100 Q
b110000 6
b110000 =
b110000 C
b10 (
b10 B
10
15
1)
b0 &
b0 :
b110000 -
b110000 L
b0 P
b0 O
b1 N
b1100111 @
b0 2
b0 G
b1000000001100111 1
b1000000001100111 F
b1000000001100111 H
b1000100 +
b1000100 J
b1000000 4
b1000000 ,
b1000000 I
b1000000 K
b1000000 M
1!
#210
0!
#215
b1100010 #
b0 '
b0 ;
b0 S
b110100 -
b110100 L
b1100011 6
b1100011 =
b1100011 C
00
b0 (
b0 B
15
1)
b1100011 &
b1100011 :
b111 P
b11 O
b0 N
b11 ?
b10011 @
b1100011 2
b1100011 G
b1100011 9
b1100011 Q
b110001100000000001110010011 1
b110001100000000001110010011 F
b110001100000000001110010011 H
b110100 +
b110100 J
b10010011 4
b110000 ,
b110000 I
b110000 K
b110000 M
1!
#220
0!
#225
1$
b0 9
b0 Q
b0 #
b0 6
b0 =
b0 C
15
1)
b0 &
b0 :
b111000 -
b111000 L
b0 P
b0 O
b0 ?
b0 2
b0 G
b10011 1
b10011 F
b10011 H
b111000 +
b111000 J
b110100 4
b110100 ,
b110100 I
b110100 K
b110100 M
1!
#230
0!
#235
b111100 -
b111100 L
b111100 +
b111100 J
b111000 4
b111000 ,
b111000 I
b111000 K
b111000 M
1!
#240
0!
#245
0$
b10100 9
b10100 Q
b10100 #
bx %
bx E
bx R
b10100 6
b10100 =
b10100 C
b10100 &
b10100 :
b1000000 -
b1000000 L
b1000 P
b10100 O
b10100 2
b10100 G
b1010000000000010000010011 1
b1010000000000010000010011 F
b1010000000000010000010011 H
b1000000 +
b1000000 J
b1010000 4
b111100 ,
b111100 I
b111100 K
b111100 M
1!
#250
0!
#255
0$
b110000 #
b0 %
b0 E
b0 R
b110000 '
b110000 ;
b110000 S
b1000100 9
b1000100 Q
b110000 6
b110000 =
b110000 C
b10 (
b10 B
10
15
1)
b0 &
b0 :
b110000 -
b110000 L
b0 P
b0 O
b1 N
b1100111 @
b0 2
b0 G
b1000000001100111 1
b1000000001100111 F
b1000000001100111 H
b1000100 +
b1000100 J
b1000000 4
b1000000 ,
b1000000 I
b1000000 K
b1000000 M
1!
#260
0!
#265
b1100010 #
b0 '
b0 ;
b0 S
b110100 -
b110100 L
b1100011 6
b1100011 =
b1100011 C
00
b0 (
b0 B
15
1)
b1100011 &
b1100011 :
b111 P
b11 O
b0 N
b11 ?
b10011 @
b1100011 2
b1100011 G
b1100011 9
b1100011 Q
b110001100000000001110010011 1
b110001100000000001110010011 F
b110001100000000001110010011 H
b110100 +
b110100 J
b10010011 4
b110000 ,
b110000 I
b110000 K
b110000 M
1!
#270
0!
#275
1$
b0 9
b0 Q
b0 #
b0 6
b0 =
b0 C
15
1)
b0 &
b0 :
b111000 -
b111000 L
b0 P
b0 O
b0 ?
b0 2
b0 G
b10011 1
b10011 F
b10011 H
b111000 +
b111000 J
b110100 4
b110100 ,
b110100 I
b110100 K
b110100 M
1!
#280
0!
#285
b111100 -
b111100 L
b111100 +
b111100 J
b111000 4
b111000 ,
b111000 I
b111000 K
b111000 M
1!
#290
0!
#295
0$
b10100 9
b10100 Q
b10100 #
bx %
bx E
bx R
b10100 6
b10100 =
b10100 C
b10100 &
b10100 :
b1000000 -
b1000000 L
b1000 P
b10100 O
b10100 2
b10100 G
b1010000000000010000010011 1
b1010000000000010000010011 F
b1010000000000010000010011 H
b1000000 +
b1000000 J
b1010000 4
b111100 ,
b111100 I
b111100 K
b111100 M
1!
#300
0!
#305
0$
b110000 #
b0 %
b0 E
b0 R
b110000 '
b110000 ;
b110000 S
b1000100 9
b1000100 Q
b110000 6
b110000 =
b110000 C
b10 (
b10 B
10
15
1)
b0 &
b0 :
b110000 -
b110000 L
b0 P
b0 O
b1 N
b1100111 @
b0 2
b0 G
b1000000001100111 1
b1000000001100111 F
b1000000001100111 H
b1000100 +
b1000100 J
b1000000 4
b1000000 ,
b1000000 I
b1000000 K
b1000000 M
1!
