cpu_test.vcd
$date
	Mon Mar 16 00:31:51 2026
$end
$version
	Icarus Verilog
$end
$timescale
	1s
$end
$scope module top_tb $end
$var reg 1 ! clk $end
$var reg 1 " reset $end
$scope module uut $end
$var wire 1 ! clk $end
$var wire 32 # jalr_target [31:0] $end
$var wire 1 " reset $end
$var wire 1 $ zero $end
$var wire 32 % srcB_reg [31:0] $end
$var wire 32 & srcB_mux [31:0] $end
$var wire 32 ' srcA_reg [31:0] $end
$var wire 2 ( result_src_wire [1:0] $end
$var wire 1 ) reg_write_wire $end
$var wire 32 * read_data [31:0] $end
$var wire 32 + pc_plus4 [31:0] $end
$var wire 32 , pc_out [31:0] $end
$var wire 32 - pc_next [31:0] $end
$var wire 1 . mem_write_wire $end
$var wire 1 / jump_wire $end
$var wire 1 0 jalr_wire $end
$var wire 32 1 instr [31:0] $end
$var wire 32 2 imm_ext [31:0] $end
$var wire 1 3 branch_wire $end
$var wire 32 4 branch_target [31:0] $end
$var wire 1 5 alu_src_wire $end
$var wire 2 6 alu_src1_wire [1:0] $end
$var wire 32 7 alu_result [31:0] $end
$var wire 4 8 alu_ctrl_wire [3:0] $end
$var reg 1 9 branch_taken $end
$var reg 32 : result_mux [31:0] $end
$var reg 32 ; srcA [31:0] $end
$scope module alu_unit $end
$var wire 32 < src1 [31:0] $end
$var wire 32 = src2 [31:0] $end
$var wire 1 $ zero $end
$var wire 4 > alu_control [3:0] $end
$var reg 32 ? result [31:0] $end
$upscope $end
$scope module control_unit $end
$var wire 3 @ funct3 [2:0] $end
$var wire 7 A funct7 [6:0] $end
$var wire 7 B opcode [6:0] $end
$var reg 4 C alu_control [3:0] $end
$var reg 1 5 alu_src $end
$var reg 2 D alu_src1 [1:0] $end
$var reg 1 3 branch $end
$var reg 1 0 jalr $end
$var reg 1 / jump $end
$var reg 1 . mem_write $end
$var reg 1 ) reg_write $end
$var reg 2 E result_src [1:0] $end
$upscope $end
$scope module dmem_unit $end
$var wire 32 F a [31:0] $end
$var wire 1 ! clk $end
$var wire 32 G rd [31:0] $end
$var wire 1 . we $end
$var wire 32 H wd [31:0] $end
$upscope $end
$scope module gen_unit $end
$var wire 32 I instr [31:0] $end
$var reg 32 J imm_ext [31:0] $end
$upscope $end
$scope module imem_unit $end
$var wire 32 K rd [31:0] $end
$var wire 32 L a [31:0] $end
$upscope $end
$scope module pc_adder_unit $end
$var wire 32 M y [31:0] $end
$var wire 32 N a [31:0] $end
$upscope $end
$scope module pc_unit $end
$var wire 1 ! clk $end
$var wire 32 O pc_next [31:0] $end
$var wire 1 " rst $end
$var reg 32 P pc [31:0] $end
$upscope $end
$scope module reg_unit $end
$var wire 5 Q a1 [4:0] $end
$var wire 5 R a2 [4:0] $end
$var wire 5 S a3 [4:0] $end
$var wire 1 ! clk $end
$var wire 32 T wd3 [31:0] $end
$var wire 1 ) we3 $end
$var wire 32 U rd2 [31:0] $end
$var wire 32 V rd1 [31:0] $end
$upscope $end
$upscope $end
$upscope $end
$enddefinitions $end
$comment Show the parameter values. $end
$dumpall
$end
#0
$dumpvars
bx V
bx U
bx T
bx S
bx R
bx Q
bx P
bx O
bx N
bx M
bx L
bx K
bx J
bx I
bx H
bx G
bx F
bx E
bx D
bx C
bx B
bx A
bx @
bx ?
bx >
bx =
bx <
bx ;
bx :
09
bx 8
bx 7
bx 6
x5
bx 4
x3
bx 2
bx 1
x0
x/
x.
bx -
bx ,
bx +
bx *
x)
bx (
bx '
bx &
bx %
x$
bx0 #
1"
0!
$end
#5
0$
b101 :
b101 T
b100 #
b101 7
b101 ?
b101 F
b0 ;
b0 <
b0 '
b0 V
b101 &
b101 =
b100 -
b100 O
b0 6
b0 D
00
0/
03
b0 (
b0 E
0.
b0 8
b0 >
b0 C
15
1)
b1 S
b101 R
b0 Q
b0 A
b0 @
b10011 B
b101 4
b101 2
b101 J
b10100000000000010010011 1
b10100000000000010010011 I
b10100000000000010010011 K
b100 +
b100 M
b0 ,
b0 L
b0 N
b0 P
1!
#10
0!
0"
#15
b1010 :
b1010 T
b1010 #
b1010 7
b1010 ?
b1010 F
b1010 &
b1010 =
b1000 -
b1000 O
b10 S
b1010 R
b1010 2
b1010 J
b101000000000000100010011 1
b101000000000000100010011 I
b101000000000000100010011 K
b1000 +
b1000 M
b1110 4
b100 ,
b100 L
b100 N
b100 P
1!
#20
0!
#25
b11111111111111111111111111111111 :
b11111111111111111111111111111111 T
b11111111111111111111111111111110 #
b11111111111111111111111111111111 7
b11111111111111111111111111111111 ?
b11111111111111111111111111111111 F
15
1)
b11111111111111111111111111111111 &
b11111111111111111111111111111111 =
b1100 -
b1100 O
b11 S
b11111 R
b1111111 A
b11111111111111111111111111111111 2
b11111111111111111111111111111111 J
b11111111111100000000000110010011 1
b11111111111100000000000110010011 I
b11111111111100000000000110010011 K
b1100 +
b1100 M
b111 4
b1000 ,
b1000 L
b1000 N
b1000 P
1!
#30
0!
#35
b101 ;
b101 <
b1010 :
b1010 T
b1010 #
b101 '
b101 V
b1010 7
b1010 ?
b1010 F
b100 8
b100 >
b100 C
15
1)
b1111 &
b1111 =
b10000 -
b10000 O
b100 S
b1111 R
b1 Q
b0 A
b100 @
b1111 2
b1111 J
b111100001100001000010011 1
b111100001100001000010011 I
b111100001100001000010011 K
b10000 +
b10000 M
b11011 4
b1100 ,
b1100 L
b1100 N
b1100 P
1!
#40
0!
#45
b1 :
b1 T
b0 #
b1 7
b1 ?
b1 F
b101 8
b101 >
b101 C
15
1)
b1010 &
b1010 =
b10100 -
b10100 O
b101 S
b1010 R
b10 @
b1010 2
b1010 J
b101000001010001010010011 1
b101000001010001010010011 I
b101000001010001010010011 K
b10100 +
b10100 M
b11010 4
b10000 ,
b10000 L
b10000 N
b10000 P
1!
#50
0!
#55
1$
b0 :
b0 T
b0 %
b0 H
b0 U
b0 7
b0 ?
b0 F
b0 &
b0 =
b11000 -
b11000 O
b110 S
b0 R
b0 2
b0 J
b1010001100010011 1
b1010001100010011 I
b1010001100010011 K
b11000 +
b11000 M
b10100 4
b10100 ,
b10100 L
b10100 N
b10100 P
1!
#60
0!
#65
0$
b1 :
b1 T
bx %
bx H
bx U
b1 7
b1 ?
b1 F
b1000 8
b1000 >
b1000 C
15
1)
b11111111111111111111111111111111 &
b11111111111111111111111111111111 =
b11100 -
b11100 O
b111 S
b11111 R
b1111111 A
b11 @
b11111111111111111111111111111111 2
b11111111111111111111111111111111 J
b11111111111100001011001110010011 1
b11111111111100001011001110010011 I
b11111111111100001011001110010011 K
b11100 +
b11100 M
b10111 4
b11000 ,
b11000 L
b11000 N
b11000 P
1!
#70
0!
#75
b1010 %
b1010 H
b1010 U
b1001 8
b1001 >
b1001 C
15
1)
b10000000010 &
b10000000010 =
b100000 -
b100000 O
b1000 S
b10 R
b100000 A
b101 @
b10000000010 2
b10000000010 J
b1000000001000001101010000010011 1
b1000000001000001101010000010011 I
b1000000001000001101010000010011 K
b100000 +
b100000 M
b10000011110 4
b11100 ,
b11100 L
b11100 N
b11100 P
1!
#80
0!
#85
b11111111111111111111111111111111 ;
b11111111111111111111111111111111 <
b11111111111111111111111111111111 :
b11111111111111111111111111111111 T
b11111111111111111111111111111110 #
b101 %
b101 H
b101 U
b11111111111111111111111111111111 '
b11111111111111111111111111111111 V
b11111111111111111111111111111111 7
b11111111111111111111111111111111 ?
b11111111111111111111111111111111 F
b10000000001 &
b10000000001 =
b100100 -
b100100 O
b1001 S
b1 R
b11 Q
b10000000001 2
b10000000001 J
b1000000000100011101010010010011 1
b1000000000100011101010010010011 I
b1000000000100011101010010010011 K
b100100 +
b100100 M
b10000100001 4
b100000 ,
b100000 L
b100000 N
b100000 P
1!
#90
0!
#95
b101 ;
b101 <
0$
b1 :
b1 T
b0 #
b1010 %
b1010 H
b1010 U
b101 '
b101 V
b1 7
b1 ?
b1 F
b1000 8
b1000 >
b1000 C
05
1)
b1010 &
b1010 =
b101000 -
b101000 O
b1010 S
b10 R
b1 Q
b0 A
b11 @
b110011 B
b0 2
b0 J
b1000001011010100110011 1
b1000001011010100110011 I
b1000001011010100110011 K
b101000 +
b101000 M
b100100 4
b100100 ,
b100100 L
b100100 N
b100100 P
1!
#100
0!
#105
1$
b0 :
b0 T
b0 7
b0 ?
b0 F
b101 &
b101 =
b1010 ;
b1010 <
b101 %
b101 H
b101 U
b1010 '
b1010 V
b101100 -
b101100 O
b1011 S
b1 R
b10 Q
b100010011010110110011 1
b100010011010110110011 I
b100010011010110110011 K
b101100 +
b101100 M
b101000 4
b101000 ,
b101000 L
b101000 N
b101000 P
1!
#110
0!
#115
0$
b11111111111111111111111111111111 :
b11111111111111111111111111111111 T
b11111111111111111111111111111110 #
b11111111111111111111111111111111 7
b11111111111111111111111111111111 ?
b11111111111111111111111111111111 F
b11111111111111111111111111111111 ;
b11111111111111111111111111111111 <
b11111111111111111111111111111111 '
b11111111111111111111111111111111 V
b1001 8
b1001 >
b1001 C
1)
b110000 -
b110000 O
b1100 S
b11 Q
b100000 A
b101 @
b1000000000100011101011000110011 1
b1000000000100011101011000110011 I
b1000000000100011101011000110011 K
b110000 +
b110000 M
b101100 4
b101100 ,
b101100 L
b101100 N
b101100 P
1!
#120
0!
#125
19
b11111111111111111111111111111111 &
b11111111111111111111111111111111 =
b101 ;
b101 <
0$
b1 :
b1 T
b0 #
b11111111111111111111111111111111 %
b11111111111111111111111111111111 H
b11111111111111111111111111111111 U
b101 '
b101 V
b1 7
b1 ?
b1 F
13
b1000 8
b1000 >
b1000 C
0)
b111100 -
b111100 O
b11 R
b1 Q
b0 A
b110 @
b1100011 B
b1100 2
b1100 J
b1100001110011001100011 1
b1100001110011001100011 I
b1100001110011001100011 K
b110100 +
b110100 M
b111100 4
b110000 ,
b110000 L
b110000 N
b110000 P
1!
#130
0!
#135
1$
b0 ;
b0 <
b0 :
b0 T
b0 #
b0 %
b0 H
b0 U
b0 '
b0 V
b0 &
b0 =
b0 7
b0 ?
b0 F
15
1)
03
b0 8
b0 >
b0 C
b1101 S
b0 R
b0 Q
b0 @
b10011 B
09
b0 2
b0 J
b1000000 -
b1000000 O
b11010010011 1
b11010010011 I
b11010010011 K
b1000000 +
b1000000 M
b111100 4
b111100 ,
b111100 L
b111100 N
b111100 P
1!
#140
0!
#145
b11111111111111111111111111111111 ;
b11111111111111111111111111111111 <
1$
b0 :
b0 T
b101 %
b101 H
b101 U
b11111111111111111111111111111111 '
b11111111111111111111111111111111 V
09
b0 7
b0 ?
b0 F
b1000 8
b1000 >
b1000 C
13
05
0)
b101 &
b101 =
b1000100 -
b1000100 O
b1000 S
b1 R
b11 Q
b110 @
b1100011 B
b1000 2
b1000 J
b100011110010001100011 1
b100011110010001100011 I
b100011110010001100011 K
b1000100 +
b1000100 M
b1001000 4
b1000000 ,
b1000000 L
b1000000 N
b1000000 P
1!
#150
0!
#155
b0 ;
b0 <
0$
b1100011 :
b1100011 T
b1100010 #
b11111111111111111111111111111111 %
b11111111111111111111111111111111 H
b11111111111111111111111111111111 U
b0 '
b0 V
b1100011 &
b1100011 =
b1100011 7
b1100011 ?
b1100011 F
15
1)
03
b0 8
b0 >
b0 C
b1001000 -
b1001000 O
b1110 S
b11 R
b0 Q
b11 A
b0 @
b10011 B
09
b1100011 2
b1100011 J
b110001100000000011100010011 1
b110001100000000011100010011 I
b110001100000000011100010011 K
b1001000 +
b1001000 M
b10100111 4
b1000100 ,
b1000100 L
b1000100 N
b1000100 P
1!
#160
0!
#165
1$
19
b11111111111111111111111111111111 ;
b11111111111111111111111111111111 <
b0 :
b0 T
b0 #
b101 %
b101 H
b101 U
b11111111111111111111111111111111 '
b11111111111111111111111111111111 V
b0 7
b0 ?
b0 F
b1000 8
b1000 >
b1000 C
13
05
0)
b101 &
b101 =
b1010100 -
b1010100 O
b1100 S
b1 R
b11 Q
b0 A
b111 @
b1100011 B
b1100 2
b1100 J
b100011111011001100011 1
b100011111011001100011 I
b100011111011001100011 K
b1001100 +
b1001100 M
b1010100 4
b1001000 ,
b1001000 L
b1001000 N
b1001000 P
1!
#170
0!
#175
b0 ;
b0 <
1$
b0 :
b0 T
b0 #
b0 %
b0 H
b0 U
b0 '
b0 V
b0 &
b0 =
b0 7
b0 ?
b0 F
15
1)
03
b0 8
b0 >
b0 C
b1111 S
b0 R
b0 Q
b0 @
b10011 B
09
b0 2
b0 J
b1011000 -
b1011000 O
b11110010011 1
b11110010011 I
b11110010011 K
b1011000 +
b1011000 M
b1010100 4
b1010100 ,
b1010100 L
b1010100 N
b1010100 P
1!
#180
0!
#185
09
b101 ;
b101 <
0$
b1 :
b1 T
b11111111111111111111111111111111 %
b11111111111111111111111111111111 H
b11111111111111111111111111111111 U
b101 '
b101 V
b1 7
b1 ?
b1 F
b1000 8
b1000 >
b1000 C
13
05
0)
b11111111111111111111111111111111 &
b11111111111111111111111111111111 =
b1011100 -
b1011100 O
b1000 S
b11 R
b1 Q
b111 @
b1100011 B
b1000 2
b1000 J
b1100001111010001100011 1
b1100001111010001100011 I
b1100001111010001100011 K
b1011100 +
b1011100 M
b1100000 4
b1011000 ,
b1011000 L
b1011000 N
b1011000 P
1!
#190
0!
#195
b0 ;
b0 <
b1100011 :
b1100011 T
b1100010 #
b0 '
b0 V
b1100011 &
b1100011 =
b1100011 7
b1100011 ?
b1100011 F
15
1)
03
b0 8
b0 >
b0 C
b1100000 -
b1100000 O
b10000 S
b0 Q
b11 A
b0 @
b10011 B
b1100011 2
b1100011 J
b110001100000000100000010011 1
b110001100000000100000010011 I
b110001100000000100000010011 K
b1100000 +
b1100000 M
b10111111 4
b1011100 ,
b1011100 L
b1011100 N
b1011100 P
1!
#200
0!
#205
b11011110101011011011000000000000 :
b11011110101011011011000000000000 T
b11011110101011011011000000000000 #
b1 %
b1 H
b1 U
bx '
bx V
b11011110101011011011000000000000 7
b11011110101011011011000000000000 ?
b11011110101011011011000000000000 F
b10 6
b10 D
15
1)
b11011110101011011011000000000000 &
b11011110101011011011000000000000 =
b1100100 -
b1100100 O
b10100 S
b1010 R
b11011 Q
b1101111 A
b11 @
b110111 B
b11011110101011011011000000000000 2
b11011110101011011011000000000000 J
b11011110101011011011101000110111 1
b11011110101011011011101000110111 I
b11011110101011011011101000110111 K
b1100100 +
b1100100 M
b11011110101011011011000001100000 4
b1100000 ,
b1100000 L
b1100000 N
b1100000 P
1!
#210
0!
#215
b1000001100100 :
b1000001100100 T
b1000001100100 #
b0 %
b0 H
b0 U
b0 '
b0 V
b1100100 ;
b1100100 <
b1000001100100 7
b1000001100100 ?
b1000001100100 F
b1 6
b1 D
15
1)
b1000000000000 &
b1000000000000 =
b1101000 -
b1101000 O
b10101 S
b0 R
b0 Q
b0 A
b1 @
b10111 B
b1000000000000 2
b1000000000000 J
b1101010010111 1
b1101010010111 I
b1101010010111 K
b1101000 +
b1101000 M
b1000001100100 4
b1100100 ,
b1100100 L
b1100100 N
b1100100 P
1!
#220
0!
#225
x$
bx %
bx H
bx U
bx '
bx V
b0 6
b0 D
05
0)
bx &
bx =
bx :
bx T
bx0 #
b1101100 -
b1101100 O
bx S
bx R
bx Q
bx A
bx @
bx B
b0 2
b0 J
bx 7
bx ?
bx F
bx 1
bx I
bx K
bx ;
bx <
b1101100 +
b1101100 M
b1101000 4
b1101000 ,
b1101000 L
b1101000 N
b1101000 P
1!
#230
0!
#235
b1110000 -
b1110000 O
b1110000 +
b1110000 M
b1101100 4
b1101100 ,
b1101100 L
b1101100 N
b1101100 P
1!
#240
0!
#245
b1110100 -
b1110100 O
b1110100 +
b1110100 M
b1110000 4
b1110000 ,
b1110000 L
b1110000 N
b1110000 P
1!
#250
0!
#255
b1111000 -
b1111000 O
b1111000 +
b1111000 M
b1110100 4
b1110100 ,
b1110100 L
b1110100 N
b1110100 P
1!
#260
0!
#265
b1111100 -
b1111100 O
b1111100 +
b1111100 M
b1111000 4
b1111000 ,
b1111000 L
b1111000 N
b1111000 P
1!
#270
0!
#275
b10000000 -
b10000000 O
b10000000 +
b10000000 M
b1111100 4
b1111100 ,
b1111100 L
b1111100 N
b1111100 P
1!
#280
0!
#285
b10000100 -
b10000100 O
b10000100 +
b10000100 M
b10000000 4
b10000000 ,
b10000000 L
b10000000 N
b10000000 P
1!
#290
0!
#295
b10001000 -
b10001000 O
b10001000 +
b10001000 M
b10000100 4
b10000100 ,
b10000100 L
b10000100 N
b10000100 P
1!
#300
0!
#305
b10001100 -
b10001100 O
b10001100 +
b10001100 M
b10001000 4
b10001000 ,
b10001000 L
b10001000 N
b10001000 P
1!
