cpu_test.vcd
$date
	Sat Mar 28 14:40:15 2026
$end
$version
	Icarus Verilog
$end
$timescale
	1s
$end
$scope module top_tb $end
$var reg 1 ! clk $end
$var reg 1 " reset $end
$scope module uut $end
$var wire 1 ! clk $end
$var wire 32 # ex_jalr_target [31:0] $end
$var wire 1 $ flush $end
$var wire 1 % halt_detected $end
$var wire 1 " reset $end
$var wire 1 & stall $end
$var wire 32 ' pc_plus4 [31:0] $end
$var wire 32 ( pc_out [31:0] $end
$var wire 32 ) pc_next [31:0] $end
$var wire 32 * mem_read_data [31:0] $end
$var wire 32 + if_instr [31:0] $end
$var wire 2 , id_result_src [1:0] $end
$var wire 1 - id_reg_write $end
$var wire 32 . id_rd2 [31:0] $end
$var wire 32 / id_rd1 [31:0] $end
$var wire 1 0 id_mem_write $end
$var wire 1 1 id_jump $end
$var wire 1 2 id_jalr $end
$var wire 32 3 id_imm_ext [31:0] $end
$var wire 1 4 id_branch $end
$var wire 2 5 id_alu_src1 [1:0] $end
$var wire 1 6 id_alu_src $end
$var wire 4 7 id_alu_control [3:0] $end
$var wire 1 8 ex_zero $end
$var wire 32 9 ex_srcB_mux [31:0] $end
$var wire 32 : ex_mem_fwd_val [31:0] $end
$var wire 32 ; ex_branch_target [31:0] $end
$var wire 32 < ex_alu_result [31:0] $end
$var reg 1 = ex_branch_taken $end
$var reg 32 > ex_mem_alu_result [31:0] $end
$var reg 1 ? ex_mem_mem_write $end
$var reg 32 @ ex_mem_pc_plus4 [31:0] $end
$var reg 5 A ex_mem_rd [4:0] $end
$var reg 32 B ex_mem_rd2 [31:0] $end
$var reg 1 C ex_mem_reg_write $end
$var reg 2 D ex_mem_result_src [1:0] $end
$var reg 1 E ex_mem_valid $end
$var reg 32 F ex_rd1_fwd [31:0] $end
$var reg 32 G ex_rd2_fwd [31:0] $end
$var reg 32 H ex_srcA [31:0] $end
$var reg 2 I forward_a [1:0] $end
$var reg 2 J forward_b [1:0] $end
$var reg 4 K id_ex_alu_control [3:0] $end
$var reg 1 L id_ex_alu_src $end
$var reg 2 M id_ex_alu_src1 [1:0] $end
$var reg 1 N id_ex_branch $end
$var reg 3 O id_ex_funct3 [2:0] $end
$var reg 32 P id_ex_imm_ext [31:0] $end
$var reg 1 Q id_ex_jalr $end
$var reg 1 R id_ex_jump $end
$var reg 1 S id_ex_mem_write $end
$var reg 32 T id_ex_pc [31:0] $end
$var reg 32 U id_ex_pc_plus4 [31:0] $end
$var reg 5 V id_ex_rd [4:0] $end
$var reg 32 W id_ex_rd1 [31:0] $end
$var reg 32 X id_ex_rd2 [31:0] $end
$var reg 1 Y id_ex_reg_write $end
$var reg 2 Z id_ex_result_src [1:0] $end
$var reg 5 [ id_ex_rs1 [4:0] $end
$var reg 5 \ id_ex_rs2 [4:0] $end
$var reg 1 ] id_ex_valid $end
$var reg 32 ^ if_id_instr [31:0] $end
$var reg 32 _ if_id_pc [31:0] $end
$var reg 32 ` if_id_pc_plus4 [31:0] $end
$var reg 32 a mem_wb_alu_result [31:0] $end
$var reg 32 b mem_wb_pc_plus4 [31:0] $end
$var reg 5 c mem_wb_rd [4:0] $end
$var reg 32 d mem_wb_read_data [31:0] $end
$var reg 1 e mem_wb_reg_write $end
$var reg 2 f mem_wb_result_src [1:0] $end
$var reg 1 g mem_wb_valid $end
$var reg 32 h perf_cycles [31:0] $end
$var reg 32 i perf_flushes [31:0] $end
$var reg 1 j perf_halted $end
$var reg 32 k perf_instrs [31:0] $end
$var reg 32 l perf_stalls [31:0] $end
$var reg 32 m wb_result [31:0] $end
$scope module alu_unit $end
$var wire 4 n alu_control [3:0] $end
$var wire 32 o src1 [31:0] $end
$var wire 32 p src2 [31:0] $end
$var wire 1 8 zero $end
$var reg 32 q result [31:0] $end
$upscope $end
$scope module control_unit $end
$var wire 3 r funct3 [2:0] $end
$var wire 7 s funct7 [6:0] $end
$var wire 7 t opcode [6:0] $end
$var reg 4 u alu_control [3:0] $end
$var reg 1 6 alu_src $end
$var reg 2 v alu_src1 [1:0] $end
$var reg 1 4 branch $end
$var reg 1 2 jalr $end
$var reg 1 1 jump $end
$var reg 1 0 mem_write $end
$var reg 1 - reg_write $end
$var reg 2 w result_src [1:0] $end
$upscope $end
$scope module dmem_unit $end
$var wire 32 x a [31:0] $end
$var wire 1 ! clk $end
$var wire 32 y rd [31:0] $end
$var wire 32 z wd [31:0] $end
$var wire 1 ? we $end
$upscope $end
$scope module gen_unit $end
$var wire 32 { instr [31:0] $end
$var reg 32 | imm_ext [31:0] $end
$upscope $end
$scope module imem_unit $end
$var wire 32 } rd [31:0] $end
$var wire 32 ~ a [31:0] $end
$var integer 32 !" i [31:0] $end
$upscope $end
$scope module pc_adder_unit $end
$var wire 32 "" y [31:0] $end
$var wire 32 #" a [31:0] $end
$upscope $end
$scope module pc_unit $end
$var wire 1 ! clk $end
$var wire 1 $" en $end
$var wire 32 %" pc_next [31:0] $end
$var wire 1 " rst $end
$var reg 32 &" pc [31:0] $end
$upscope $end
$scope module reg_unit $end
$var wire 5 '" a1 [4:0] $end
$var wire 5 (" a2 [4:0] $end
$var wire 5 )" a3 [4:0] $end
$var wire 1 ! clk $end
$var wire 32 *" wd3 [31:0] $end
$var wire 1 e we3 $end
$var wire 32 +" rd2 [31:0] $end
$var wire 32 ," rd1 [31:0] $end
$upscope $end
$upscope $end
$upscope $end
$enddefinitions $end
$comment Show the parameter values. $end
$dumpall
$end
#0
$dumpvars
bx ,"
bx +"
bx *"
bx )"
bx ("
bx '"
bx &"
bx %"
x$"
bx #"
bx ""
b1000000 !"
bx ~
bx }
bx |
bx {
bx z
bx y
bx x
bx w
bx v
bx u
bx t
bx s
bx r
bx q
bx p
bx o
bx n
bx m
bx l
bx k
xj
bx i
bx h
xg
bx f
xe
bx d
bx c
bx b
bx a
bx `
bx _
bx ^
x]
bx \
bx [
bx Z
xY
bx X
bx W
bx V
bx U
bx T
xS
xR
xQ
bx P
bx O
xN
bx M
xL
bx K
bx J
bx I
bx H
bx G
bx F
xE
bx D
xC
bx B
bx A
bx @
x?
bx >
0=
bx <
bx ;
bx :
bx 9
x8
bx 7
x6
bx 5
x4
bx 3
x2
x1
x0
bx /
bx .
x-
bx ,
bx +
bx *
bx )
bx (
bx '
x&
x%
x$
bx0 #
1"
0!
$end
#5
18
b0 #
b0 <
b0 q
b0 5
b0 v
02
01
04
b0 ,
b0 w
00
b0 7
b0 u
16
1-
b0 /
b0 ,"
b0 .
b0 +"
b100 )
b100 %"
b0 9
b0 p
b0 H
b0 o
1$"
0&
b10100000000000010010011 +
b10100000000000010010011 }
b10011 t
b0 r
b0 s
b0 '"
b0 ("
b0 3
b0 |
0%
b0 G
b0 F
0$
b0 :
b0 J
b0 I
b0 m
b0 *"
b100 '
b100 ""
b0 (
b0 ~
b0 #"
b0 &"
0j
b0 i
b0 l
b0 k
b0 h
b0 `
b0 _
b10011 ^
b10011 {
0]
b0 \
b0 [
b0 ;
b0 P
b0 X
b0 W
b0 U
b0 T
b0 O
b0 V
0L
b0 K
b0 n
b0 M
b0 Z
0Q
0R
0N
0S
0Y
0E
b0 D
0?
0C
b0 A
b0 @
b0 B
b0 z
b0 >
b0 x
0g
b0 f
0e
b0 c
b0 )"
b0 b
b0 d
b0 a
1!
#10
0!
0"
#15
bx .
bx +"
b1000 )
b1000 %"
b101 ("
b101 3
b101 |
b100001000000100010011 +
b100001000000100010011 }
bx d
1]
1L
1Y
b100 `
b10100000000000010010011 ^
b10100000000000010010011 {
b1 h
b1000 '
b1000 ""
b100 (
b100 ~
b100 #"
b100 &"
1!
#20
0!
#25
08
b100 #
b1100 )
b1100 %"
bx /
bx ,"
b101 <
b101 q
b100010000000110010011 +
b100010000000110010011 }
b1 '"
b1 ("
b1 3
b1 |
b101 9
b101 p
bx G
b1100 '
b1100 ""
b1000 (
b1000 ~
b1000 #"
b1000 &"
b10 h
b1000 `
b100 _
b100001000000100010011 ^
b100001000000100010011 {
b101 \
b1 V
b101 ;
b101 P
bx X
b100 U
1E
1C
1!
#30
0!
#35
08
b110 #
b101 :
b101 G
b110 <
b110 q
b101 H
b101 o
b10000 )
b10000 %"
b10 J
b10 I
b1 9
b1 p
b101 F
b10 '"
b101000000000001000010011 +
b101000000000001000010011 }
1g
1e
b1 A
b100 @
bx B
bx z
b101 >
b101 x
b1 \
b1 [
b10 V
b1 P
bx W
b1000 U
b101 ;
b100 T
b1100 `
b1000 _
b100010000000110010011 ^
b100010000000110010011 {
b11 h
b10000 '
b10000 ""
b1100 (
b1100 ~
b1100 #"
b1100 &"
1!
#40
0!
#45
b111 <
b111 q
b110 H
b110 o
bx .
bx +"
b110 F
b10100 )
b10100 %"
b0 /
b0 ,"
b110 :
b10011 +
b10011 }
b0 '"
b1010 ("
b1010 3
b1010 |
b1 J
b101 m
b101 *"
b10100 '
b10100 ""
b10000 (
b10000 ~
b10000 #"
b10000 &"
b1 k
b100 h
b10000 `
b1100 _
b101000000000001000010011 ^
b101000000000001000010011 {
b10 [
b11 V
b1100 U
b1001 ;
b1000 T
b10 A
b1000 @
b101 B
b101 z
b110 >
b110 x
b1 c
b1 )"
b100 b
b101 a
1!
#50
0!
#55
b0 H
b0 o
b1010 #
b111 :
bx G
b0 F
b1010 <
b1010 q
b0 .
b0 +"
b11000 )
b11000 %"
b110 m
b110 *"
b0 J
b0 I
b1010 9
b1010 p
b0 ("
b0 3
b0 |
b10000100000001010010011 +
b10000100000001010010011 }
b10 c
b10 )"
b1000 b
b110 a
b11 A
b1100 @
b111 >
b111 x
b1010 \
b0 [
b100 V
b1010 P
b0 W
b10000 U
b10110 ;
b1100 T
b10100 `
b10000 _
b10011 ^
b10011 {
b10 k
b101 h
b11000 '
b11000 ""
b10100 (
b10100 ~
b10100 #"
b10100 &"
1!
#60
0!
#65
bx /
bx ,"
bx .
bx +"
18
b0 #
b11100 )
b11100 %"
b0 <
b0 q
b1010 :
b100000010000000100011 +
b100000010000000100011 }
b100 '"
b100 ("
b100 3
b100 |
b0 9
b0 p
b0 G
b111 m
b111 *"
b11100 '
b11100 ""
b11000 (
b11000 ~
b11000 #"
b11000 &"
b11 k
b110 h
b11000 `
b10100 _
b10000100000001010010011 ^
b10000100000001010010011 {
b0 \
b0 V
b0 P
b0 X
b10100 U
b10000 ;
b10000 T
b100 A
b10000 @
bx B
bx z
b1010 >
b1010 x
b11 c
b11 )"
b1100 b
b111 a
1!
#70
0!
#75
b101 .
b101 +"
08
b1110 #
b0 :
b1110 <
b1110 q
b1010 H
b1010 o
10
16
0-
b0 /
b0 ,"
b100000 )
b100000 %"
b1010 m
b1010 *"
b1 J
b1 I
b100 9
b100 p
b1010 G
b1010 F
b100011 t
b10 r
b0 '"
b1 ("
b0 3
b0 |
b10011 +
b10011 }
b100 c
b100 )"
b10000 b
b1010 a
b0 A
b10100 @
b0 B
b0 z
b0 >
b0 x
b100 \
b100 [
b101 V
b100 P
bx X
bx W
b11000 U
b11000 ;
b10100 T
b11100 `
b11000 _
b100000010000000100011 ^
b100000010000000100011 {
b100 k
b111 h
b100000 '
b100000 ""
b11100 (
b11100 ~
b11100 #"
b11100 &"
1!
#80
0!
#85
18
b0 #
b100100 )
b100100 %"
1-
00
16
b0 .
b0 +"
b0 <
b0 q
b0 H
b0 o
b1110 :
b10011 t
b0 r
b0 ("
b0 9
b0 p
b101 G
b0 F
b0 J
b0 I
b0 m
b0 *"
b100100 '
b100100 ""
b100000 (
b100000 ~
b100000 #"
b100000 &"
b101 k
b1000 h
b100000 `
b11100 _
b10011 ^
b10011 {
1S
0Y
b10 O
b1 \
b0 [
b0 V
b0 P
b101 X
b0 W
b11100 U
b11000 ;
b11000 T
b101 A
b11000 @
b1010 B
b1010 z
b1110 >
b1110 x
b0 c
b0 )"
b10100 b
b0 a
1!
#90
0!
#95
b0 :
b101000 )
b101000 %"
b1110 m
b1110 *"
b0 G
b101 c
b101 )"
b11000 b
b1110 a
1?
0C
b0 A
b11100 @
b101 B
b101 z
b0 >
b0 x
0S
1Y
b0 O
b0 \
b0 X
b100000 U
b11100 ;
b11100 T
b100100 `
b100000 _
b110 k
b1001 h
b101000 '
b101000 ""
b100100 (
b100100 ~
b100100 #"
b100100 &"
1!
#100
0!
#105
b101100 )
b101100 %"
b10001100000011 +
b10001100000011 }
b0 m
b0 *"
b101100 '
b101100 ""
b101000 (
b101000 ~
b101000 #"
b101000 &"
b101 *
b101 y
b111 k
b1010 h
b101000 `
b100100 _
b100100 U
b100000 ;
b100000 T
0?
1C
b100000 @
b0 B
b0 z
0e
b0 c
b0 )"
b11100 b
b0 a
1!
#110
0!
#115
b1 ,
b1 w
16
1-
b110000 )
b110000 %"
b11 t
b10 r
b100110000001110010011 +
b100110000001110010011 }
1e
b100000 b
b101 d
b100100 @
b101000 U
b100100 ;
b100100 T
b101100 `
b101000 _
b10001100000011 ^
b10001100000011 {
b1000 k
b1011 h
b110000 '
b110000 ""
b101100 (
b101100 ~
b101100 #"
b101100 &"
1!
#120
0!
#125
bx /
bx ,"
b101 .
b101 +"
0$"
1&
b110100 )
b110100 %"
b0 ,
b0 w
16
1-
b10011 +
b10011 }
b10011 t
b0 r
b110 '"
b1 ("
b1 3
b1 |
b110100 '
b110100 ""
b110000 (
b110000 ~
b110000 #"
b110000 &"
b1001 k
b1100 h
b110000 `
b101100 _
b100110000001110010011 ^
b100110000001110010011 {
b1 Z
b10 O
b110 V
b101100 U
b101000 ;
b101000 T
b101000 @
b100100 b
1!
#130
0!
#135
1$"
0&
b101000 b
b1 D
b110 A
b101100 @
0]
b0 U
b0 ;
b0 T
b0 O
b0 V
0L
b0 Z
0Y
b1 l
b1010 k
b1101 h
1!
#140
0!
#145
08
b110 #
b111000 )
b111000 %"
b0 /
b0 ,"
b0 .
b0 +"
b110 <
b110 q
b101 H
b101 o
b0 '"
b0 ("
b0 3
b0 |
b1 9
b1 p
b101 G
b101 F
b1 I
b101 m
b101 *"
b111000 '
b111000 ""
b110100 (
b110100 ~
b110100 #"
b110100 &"
b1011 k
b1110 h
b110100 `
b110000 _
b10011 ^
b10011 {
1]
1L
1Y
b1 \
b110 [
b111 V
b1 P
b101 X
bx W
b110000 U
b101101 ;
b101100 T
0E
b0 D
0C
b0 A
b0 @
b1 f
b110 c
b110 )"
b101100 b
1!
#150
0!
#155
18
b0 H
b0 o
b0 #
b110 :
b0 F
b0 <
b0 q
b111100 )
b111100 %"
b0 m
b0 *"
bx *
bx y
b0 I
b0 9
b0 p
b0 G
0g
b0 f
0e
b0 c
b0 )"
b0 b
1E
1C
b111 A
b110000 @
b101 B
b101 z
b110 >
b110 x
b0 \
b0 [
b0 V
b0 P
b0 X
b0 W
b110100 U
b110000 ;
b110000 T
b111000 `
b110100 _
b1100 k
b1111 h
b111100 '
b111100 ""
b111000 (
b111000 ~
b111000 #"
b111000 &"
1!
#160
0!
#165
b1000000 )
b1000000 %"
b0 :
b1000001000000010110011 +
b1000001000000010110011 }
b101 *
b101 y
b110 m
b110 *"
b1000000 '
b1000000 ""
b111100 (
b111100 ~
b111100 #"
b111100 &"
b10000 h
b111100 `
b111000 _
b111000 U
b110100 ;
b110100 T
b0 A
b110100 @
b0 B
b0 z
b0 >
b0 x
1g
1e
b111 c
b111 )"
b110000 b
bx d
b110 a
1!
#170
0!
#175
b101 /
b101 ,"
b110 .
b110 +"
06
1-
b1000100 )
b1000100 %"
b0 m
b0 *"
b110011 t
b1 '"
b10 ("
b100001000000100110011 +
b100001000000100110011 }
b0 c
b0 )"
b110100 b
b101 d
b0 a
b111000 @
b111100 U
b111000 ;
b111000 T
b1000000 `
b111100 _
b1000001000000010110011 ^
b1000001000000010110011 {
b1101 k
b10001 h
b1000100 '
b1000100 ""
b1000000 (
b1000000 ~
b1000000 #"
b1000000 &"
1!
#180
0!
#185
b101 .
b101 +"
08
b1010 #
b1001000 )
b1001000 %"
b1011 <
b1011 q
b101 H
b101 o
b10011 +
b10011 }
b1 ("
b110 9
b110 p
b110 G
b101 F
b1001000 '
b1001000 ""
b1000100 (
b1000100 ~
b1000100 #"
b1000100 &"
b1110 k
b10010 h
b1000100 `
b1000000 _
b100001000000100110011 ^
b100001000000100110011 {
0L
b10 \
b1 [
b1 V
b110 X
b101 W
b1000000 U
b111100 ;
b111100 T
b111100 @
b111000 b
1!
#190
0!
#195
08
b10110 #
b1011 H
b1011 o
b10110 <
b10110 q
b1011 :
b1011 F
b1011 9
b1011 p
16
1-
b0 /
b0 ,"
b0 .
b0 +"
b1001100 )
b1001100 %"
bx *
bx y
b10 J
b10 I
b1011 G
b10011 t
b0 '"
b0 ("
b111100 b
b1 A
b1000000 @
b110 B
b110 z
b1011 >
b1011 x
b1 \
b10 V
b101 X
b1000100 U
b1000000 ;
b1000000 T
b1001000 `
b1000100 _
b10011 ^
b10011 {
b1111 k
b10011 h
b1001100 '
b1001100 ""
b1001000 (
b1001000 ~
b1001000 #"
b1001000 &"
1!
#200
0!
#205
18
b0 #
b1010000 )
b1010000 %"
b0 <
b0 q
b0 H
b0 o
b10110 :
b0 9
b0 p
b0 G
b0 F
b0 J
b0 I
b1011 m
b1011 *"
b1010000 '
b1010000 ""
b1001100 (
b1001100 ~
b1001100 #"
b1001100 &"
b10000 k
b10100 h
b1001100 `
b1001000 _
1L
b0 \
b0 [
b0 V
b0 X
b0 W
b1001000 U
b1000100 ;
b1000100 T
b10 A
b1000100 @
b1011 B
b1011 z
b10110 >
b10110 x
b1 c
b1 )"
b1000000 b
bx d
b1011 a
1!
#210
0!
#215
b0 :
b1010100 )
b1010100 %"
b10110 m
b10110 *"
b101 *
b101 y
b1010000000000010000010011 +
b1010000000000010000010011 }
b10 c
b10 )"
b1000100 b
b10110 a
b0 A
b1001000 @
b0 B
b0 z
b0 >
b0 x
b1001100 U
b1001000 ;
b1001000 T
b1010000 `
b1001100 _
b10001 k
b10101 h
b1010100 '
b1010100 ""
b1010000 (
b1010000 ~
b1010000 #"
b1010000 &"
1!
#220
0!
#225
bx .
bx +"
b1011000 )
b1011000 %"
b100000000010000000100011 +
b100000000010000000100011 }
b10100 ("
b10100 3
b10100 |
b0 m
b0 *"
b1011000 '
b1011000 ""
b1010100 (
b1010100 ~
b1010100 #"
b1010100 &"
b10010 k
b10110 h
b1010100 `
b1010000 _
b1010000000000010000010011 ^
b1010000000000010000010011 {
b1010000 U
b1001100 ;
b1001100 T
b1001100 @
b0 c
b0 )"
b1001000 b
b101 d
b0 a
1!
#230
0!
#235
08
b10100 #
b10100 <
b10100 q
10
16
0-
b1011100 )
b1011100 %"
b10100 9
b10100 p
bx G
b100011 t
b10 r
b1000 ("
b0 3
b0 |
b10011 +
b10011 }
b1001100 b
b1010000 @
b10100 \
b1000 V
b10100 P
bx X
b1010100 U
b1100100 ;
b1010000 T
b1011000 `
b1010100 _
b100000000010000000100011 ^
b100000000010000000100011 {
b10011 k
b10111 h
b1011100 '
b1011100 ""
b1011000 (
b1011000 ~
b1011000 #"
b1011000 &"
1!
#240
0!
#245
18
b0 #
b1100000 )
b1100000 %"
1-
00
16
b0 .
b0 +"
b0 <
b0 q
b10100 G
b10100 :
b10011 t
b0 r
b0 ("
b0 9
b0 p
b10 J
bx *
bx y
b1100000 '
b1100000 ""
b1011100 (
b1011100 ~
b1011100 #"
b1011100 &"
b10100 k
b11000 h
b1011100 `
b1011000 _
b10011 ^
b10011 {
1S
0Y
b10 O
b1000 \
b0 V
b0 P
b1011000 U
b1010100 ;
b1010100 T
b1000 A
b1010100 @
bx B
bx z
b10100 >
b10100 x
b1010000 b
1!
#250
0!
#255
b0 :
b0 G
b1100100 )
b1100100 %"
b10100 m
b10100 *"
b101 *
b101 y
b0 J
b1000 c
b1000 )"
b1010100 b
bx d
b10100 a
1?
0C
b0 A
b1011000 @
b10100 B
b10100 z
b0 >
b0 x
0S
1Y
b0 O
b0 \
b0 X
b1011100 U
b1011000 ;
b1011000 T
b1100000 `
b1011100 _
b10101 k
b11001 h
b1100100 '
b1100100 ""
b1100000 (
b1100000 ~
b1100000 #"
b1100000 &"
1!
#260
0!
#265
b1101000 )
b1101000 %"
b10010010000011 +
b10010010000011 }
b0 m
b0 *"
b1101000 '
b1101000 ""
b1100100 (
b1100100 ~
b1100100 #"
b1100100 &"
b10100 *
b10100 y
b10110 k
b11010 h
b1100100 `
b1100000 _
b1100000 U
b1011100 ;
b1011100 T
0?
1C
b1011100 @
b0 B
b0 z
0e
b0 c
b0 )"
b1011000 b
b101 d
b0 a
1!
#270
0!
#275
b1 ,
b1 w
16
1-
b1101100 )
b1101100 %"
b11 t
b10 r
b10011 +
b10011 }
1e
b1011100 b
b10100 d
b1100000 @
b1100100 U
b1100000 ;
b1100000 T
b1101000 `
b1100100 _
b10010010000011 ^
b10010010000011 {
b10111 k
b11011 h
b1101100 '
b1101100 ""
b1101000 (
b1101000 ~
b1101000 #"
b1101000 &"
1!
#280
0!
#285
b1110000 )
b1110000 %"
b0 ,
b0 w
16
1-
b10011 t
b0 r
b1110000 '
b1110000 ""
b1101100 (
b1101100 ~
b1101100 #"
b1101100 &"
b11000 k
b11100 h
b1101100 `
b1101000 _
b10011 ^
b10011 {
b1 Z
b10 O
b1001 V
b1101000 U
b1100100 ;
b1100100 T
b1100100 @
b1100000 b
1!
#290
0!
#295
b1110100 )
b1110100 %"
b1100100 b
b1 D
b1001 A
b1101000 @
b0 Z
b0 O
b0 V
b1101100 U
b1101000 ;
b1101000 T
b1110000 `
b1101100 _
b11001 k
b11101 h
b1110100 '
b1110100 ""
b1110000 (
b1110000 ~
b1110000 #"
b1110000 &"
1!
#300
0!
#305
b1111000 )
b1111000 %"
b10100000000010100010011 +
b10100000000010100010011 }
b10100 m
b10100 *"
b1111000 '
b1111000 ""
b1110100 (
b1110100 ~
b1110100 #"
b1110100 &"
b11010 k
b11110 h
b1110100 `
b1110000 _
b1110000 U
b1101100 ;
b1101100 T
b0 D
b0 A
b1101100 @
b1 f
b1001 c
b1001 )"
b1101000 b
1!
#310
0!
#315
b1110 .
b1110 +"
b1111100 )
b1111100 %"
b0 m
b0 *"
b101 ("
b101 3
b101 |
b10100000000010110010011 +
b10100000000010110010011 }
b0 f
b0 c
b0 )"
b1101100 b
b1110000 @
b1110100 U
b1110000 ;
b1110000 T
b1111000 `
b1110100 _
b10100000000010100010011 ^
b10100000000010100010011 {
b11011 k
b11111 h
b1111100 '
b1111100 ""
b1111000 (
b1111000 ~
b1111000 #"
b1111000 &"
1!
#320
0!
#325
08
b100 #
b10000000 )
b10000000 %"
b101 <
b101 q
b101101010000011001100011 +
b101101010000011001100011 }
b101 9
b101 p
b1110 G
b10000000 '
b10000000 ""
b1111100 (
b1111100 ~
b1111100 #"
b1111100 &"
b11100 k
b100000 h
b1111100 `
b1111000 _
b10100000000010110010011 ^
b10100000000010110010011 {
b101 \
b1010 V
b101 P
b1110 X
b1111000 U
b1111001 ;
b1110100 T
b1110100 @
b1110000 b
1!
#330
0!
#335
bx /
bx ,"
bx .
bx +"
b101 :
b1 7
b1 u
14
06
0-
b10000100 )
b10000100 %"
bx *
bx y
b1100011 t
b1010 '"
b1011 ("
b1100 3
b1100 |
b100000000011000010011 +
b100000000011000010011 }
b1110100 b
b1010 A
b1111000 @
b1110 B
b1110 z
b101 >
b101 x
b1011 V
b1111100 U
b1111101 ;
b1111000 T
b10000000 `
b1111100 _
b101101010000011001100011 ^
b101101010000011001100011 {
b11101 k
b100001 h
b10000100 '
b10000100 ""
b10000000 (
b10000000 ~
b10000000 #"
b10000000 &"
1!
#340
0!
#345
1$
1=
b1011 .
b1011 +"
18
b10001000 )
b10001000 %"
16
1-
04
b0 7
b0 u
b0 /
b0 ,"
b0 #
b101 H
b101 o
b10011 t
b0 '"
b1 ("
b1 3
b1 |
b0 <
b0 q
b101 G
b101 F
b10 J
b1 I
b101 m
b101 *"
b10001000 '
b10001000 ""
b10000100 (
b10000100 ~
b10000100 #"
b10000100 &"
b11110 k
b100010 h
b10000100 `
b10000000 _
b100000000011000010011 ^
b100000000011000010011 {
b1 K
b1 n
1N
0L
0Y
b1011 \
b1010 [
b1100 V
b1100 P
bx X
bx W
b10000000 U
b10001000 ;
b1111100 T
b1011 A
b1111100 @
b1010 c
b1010 )"
b1111000 b
bx d
b101 a
1!
#350
0!
#355
b0 9
b0 p
b0 H
b0 o
0$
b0 :
b0 G
b0 F
b10001100 )
b10001100 %"
18
b0 #
b0 .
b0 +"
b10100 *
b10100 y
b0 J
b0 I
b0 <
b0 q
0=
b0 ("
b0 3
b0 |
b11000010011 +
b11000010011 }
b1011 c
b1011 )"
b1111100 b
0C
b1100 A
b10000000 @
b101 B
b101 z
b0 >
b0 x
0]
b0 \
b0 [
b0 P
b0 X
b0 W
b0 U
b0 ;
b0 T
b0 V
b0 K
b0 n
0N
b0 `
b0 _
b10011 ^
b10011 {
b1 i
b11111 k
b100011 h
b10001100 '
b10001100 ""
b10001000 (
b10001000 ~
b10001000 #"
b10001000 &"
1!
#360
0!
#365
b10010000 )
b10010000 %"
b10011 +
b10011 }
b0 m
b0 *"
b10010000 '
b10010000 ""
b10001100 (
b10001100 ~
b10001100 #"
b10001100 &"
b100000 k
b100100 h
b10001100 `
b10001000 _
b11000010011 ^
b11000010011 {
1]
1L
1Y
0E
b0 A
b0 @
b0 B
b0 z
0e
b1100 c
b1100 )"
b10000000 b
b10100 d
b0 a
1!
#370
0!
#375
b10010100 )
b10010100 %"
0g
b0 c
b0 )"
b0 b
1E
1C
b1100 V
b10001100 U
b10001000 ;
b10001000 T
b10010000 `
b10001100 _
b10011 ^
b10011 {
b100001 k
b100101 h
b10010100 '
b10010100 ""
b10010000 (
b10010000 ~
b10010000 #"
b10010000 &"
1!
#380
0!
#385
b10011000 )
b10011000 %"
b10011000 '
b10011000 ""
b10010100 (
b10010100 ~
b10010100 #"
b10010100 &"
b100110 h
b10010100 `
b10010000 _
b0 V
b10010000 U
b10001100 ;
b10001100 T
b1100 A
b10001100 @
1g
1e
1!
#390
0!
#395
b10011100 )
b10011100 %"
b1100 c
b1100 )"
b10001100 b
b0 A
b10010000 @
b10010100 U
b10010000 ;
b10010000 T
b10011000 `
b10010100 _
b100010 k
b100111 h
b10011100 '
b10011100 ""
b10011000 (
b10011000 ~
b10011000 #"
b10011000 &"
1!
#400
0!
#405
b10100000 )
b10100000 %"
b10100000 '
b10100000 ""
b10011100 (
b10011100 ~
b10011100 #"
b10011100 &"
b100011 k
b101000 h
b10011100 `
b10011000 _
b10011000 U
b10010100 ;
b10010100 T
b10010100 @
b0 c
b0 )"
b10010000 b
1!
#410
0!
#415
b10100100 )
b10100100 %"
b10010100 b
b10011000 @
b10011100 U
b10011000 ;
b10011000 T
b10100000 `
b10011100 _
b100100 k
b101001 h
b10100100 '
b10100100 ""
b10100000 (
b10100000 ~
b10100000 #"
b10100000 &"
1!
#420
0!
#425
b10101000 )
b10101000 %"
b10101000 '
b10101000 ""
b10100100 (
b10100100 ~
b10100100 #"
b10100100 &"
b100101 k
b101010 h
b10100100 `
b10100000 _
b10100000 U
b10011100 ;
b10011100 T
b10011100 @
b10011000 b
1!
#430
0!
#435
b10101100 )
b10101100 %"
b10011100 b
b10100000 @
b10100100 U
b10100000 ;
b10100000 T
b10101000 `
b10100100 _
b100110 k
b101011 h
b10101100 '
b10101100 ""
b10101000 (
b10101000 ~
b10101000 #"
b10101000 &"
1!
#440
0!
#445
b10110000 )
b10110000 %"
b10110000 '
b10110000 ""
b10101100 (
b10101100 ~
b10101100 #"
b10101100 &"
b100111 k
b101100 h
b10101100 `
b10101000 _
b10101000 U
b10100100 ;
b10100100 T
b10100100 @
b10100000 b
1!
#450
0!
#455
b10110100 )
b10110100 %"
b10100100 b
b10101000 @
b10101100 U
b10101000 ;
b10101000 T
b10110000 `
b10101100 _
b101000 k
b101101 h
b10110100 '
b10110100 ""
b10110000 (
b10110000 ~
b10110000 #"
b10110000 &"
1!
#460
0!
#465
b10111000 )
b10111000 %"
b10111000 '
b10111000 ""
b10110100 (
b10110100 ~
b10110100 #"
b10110100 &"
b101001 k
b101110 h
b10110100 `
b10110000 _
b10110000 U
b10101100 ;
b10101100 T
b10101100 @
b10101000 b
1!
#470
0!
#475
b10111100 )
b10111100 %"
b10101100 b
b10110000 @
b10110100 U
b10110000 ;
b10110000 T
b10111000 `
b10110100 _
b101010 k
b101111 h
b10111100 '
b10111100 ""
b10111000 (
b10111000 ~
b10111000 #"
b10111000 &"
1!
#480
0!
#485
b11000000 )
b11000000 %"
b11000000 '
b11000000 ""
b10111100 (
b10111100 ~
b10111100 #"
b10111100 &"
b101011 k
b110000 h
b10111100 `
b10111000 _
b10111000 U
b10110100 ;
b10110100 T
b10110100 @
b10110000 b
1!
#490
0!
#495
b11000100 )
b11000100 %"
b10110100 b
b10111000 @
b10111100 U
b10111000 ;
b10111000 T
b11000000 `
b10111100 _
b101100 k
b110001 h
b11000100 '
b11000100 ""
b11000000 (
b11000000 ~
b11000000 #"
b11000000 &"
1!
#500
0!
#505
b11001000 )
b11001000 %"
b11001000 '
b11001000 ""
b11000100 (
b11000100 ~
b11000100 #"
b11000100 &"
b101101 k
b110010 h
b11000100 `
b11000000 _
b11000000 U
b10111100 ;
b10111100 T
b10111100 @
b10111000 b
1!
#510
0!
#515
b11001100 )
b11001100 %"
b10111100 b
b11000000 @
b11000100 U
b11000000 ;
b11000000 T
b11001000 `
b11000100 _
b101110 k
b110011 h
b11001100 '
b11001100 ""
b11001000 (
b11001000 ~
b11001000 #"
b11001000 &"
1!
#520
0!
